# Color definition for Tinkercad Obj File 2015

newmtl color_14093196
Ka 0 0 0 
Kd 0.8431372549019608 0.043137254901960784 0.5490196078431373
d 1
illum 0.0

newmtl color_16089887
Ka 0 0 0 
Kd 0.9607843137254902 0.5137254901960784 0.12156862745098039
d 1
illum 0.0

