# Color definition for Tinkercad Obj File 2015

newmtl color_4634441
Ka 0 0 0 
Kd 0.27450980392156865 0.7176470588235294 0.28627450980392155
d 1
illum 0.0

newmtl color_16089887
Ka 0 0 0 
Kd 0.9607843137254902 0.5137254901960784 0.12156862745098039
d 1
illum 0.0

newmtl color_15277357
Ka 0 0 0 
Kd 0.9137254901960784 0.11372549019607843 0.17647058823529413
d 1
illum 0.0

newmtl color_16768282
Ka 0 0 0 
Kd 1 0.8666666666666667 0.10196078431372549
d 1
illum 0.0

newmtl color_3888547
Ka 0 0 0 
Kd 0.23137254901960785 0.3333333333333333 0.6392156862745098
d 1
illum 0.0

