# Object Export From Tinkercad Server 2015

mtllib obj.mtl

o obj_0
v 34 		3.055 		32.898
v 34 		3.055 		40.9
v 34 		-0.998 		40.9
v 29.102 		1.075 		40.9
v 34 		70 		40.9
v -20.903 		9.278 		6.198
v 29.041 		0.688 		40.9
v 34 		65.945 		40.9
v 34 		65.945 		32.898
v 28.863 		0.339 		40.9
v -20.903 		11.094 		6.486
v -20.903 		12.732 		7.32
v 34 		45.38 		28.601
v -20.903 		13.3104 		7.898
v 25.26 		22.179 		18
v 25.26 		22.037 		18.896
v 25.26 		21.625 		19.704
v -20.903 		20.0656 		7.898
v -20.903 		19.75 		7.848
v 34 		33.225 		28.601
v 34 		25.58 		28.601
v 25.26 		20.983 		20.346
v -20.903 		19.4347 		7.898
v -23.601 		55.205 		6.198
v 34 		52.925 		29.201
v 27.776 		16.377 		18
v 25.26 		20.174 		20.758
v -23.601 		45.673 		7.32
v -20.903 		33.436 		7.898
v 27.776 		16.048 		16.827
v 34 		65.08 		29.201
v 25.26 		22.0653 		17.2816
v -20.903 		39.8656 		7.898
v -20.903 		39.55 		7.848
v -23.601 		43.05 		6.198
v -20.903 		39.2347 		7.898
v 25.26 		24.258 		15.528
v -23.601 		3.2 		28.601
v 25.26 		22.957 		16.827
v 27.776 		14.748 		15.528
v -23.601 		3.2 		6.198
v 27.776 		13.913 		13.89
v -29.9 		3.2 		28.601
v 27.776 		13.625 		12.074
v -29.9 		3.2 		6.198
v 25.26 		30.887 		15.654
v 25.26 		29.65 		15.849
v -27.35 		-0.177 		23.898
v -27.737 		-0.116 		23.898
v -20.903 		53.1604 		7.898
v 27.776 		13.913 		10.258
v 34 		13.425 		28.601
v 27.776 		14.748 		8.62
v 25.26 		28.414 		15.654
v -26.963 		-0.116 		23.898
v -28.086 		0.062 		23.898
v -20.903 		59.5656 		7.898
v -20.903 		59.25 		7.848
v -28.363 		0.339 		23.898
v -20.903 		58.9347 		7.898
v 25.26 		40.783 		20.346
v -28.541 		0.688 		23.898
v 25.26 		39.974 		20.758
v 34 		52.925 		6.198
v 34 		45.38 		6.198
v -20.903 		63.663 		7.898
v -28.603 		1.075 		23.898
v 34 		65.08 		6.198
v 34 		33.225 		6.198
v 25.26 		41.979 		18
v 25.26 		41.837 		18.896
v 34 		25.58 		6.198
v -28.541 		1.462 		23.898
v -20.903 		45.095 		7.898
v 25.26 		41.425 		19.704
v 34 		70 		0
v -28.363 		1.811 		23.898
v 27.776 		13.625 		28.601
v -28.086 		2.088 		23.898
v 27.776 		13.425 		28.601
v 34 		13.425 		6.198
v -27.737 		2.266 		23.898
v -20.903 		25.37 		7.898
v 25.26 		41.8653 		17.2816
v -27.35 		2.328 		23.898
v -20.903 		27.587 		6.486
v -20.903 		29.403 		6.198
v -26.963 		2.266 		23.898
v 34 		-0.998 		0
v -29.9 		3.055 		40.9
v -20.903 		31.219 		6.486
v -29.9 		3.055 		32.898
v -29.9 		-0.998 		40.9
v -29.9 		70 		40.9
v -29.9 		65.945 		32.898
v -29.9 		65.945 		40.9
v -20.903 		32.858 		7.32
v -29.9 		23.325 		28.601
v -29.9 		23.325 		6.198
v 29.178 		49.375 		15.249
v -29.9 		15.355 		6.198
v -29.9 		15.355 		28.601
v 25.26 		44.058 		15.528
v -26.614 		2.088 		23.898
v -29.9 		43.05 		28.601
v -29.9 		43.05 		6.198
v -29.9 		35.48 		6.198
v -29.9 		35.48 		28.601
v 29.178 		29.65 		15.249
v 25.26 		42.757 		16.827
v -29.9 		55.205 		6.198
v -29.9 		55.205 		28.601
v -26.337 		1.811 		23.898
v -26.159 		1.462 		23.898
v -20.903 		47.312 		6.486
v -20.903 		49.128 		6.198
v -29.9 		-0.998 		0
v -26.098 		1.075 		23.898
v -29.9 		70 		0
v -20.903 		61.9019 		0
v 0.6589 		35.8385 		0
v -0.9438 		33.8311 		0
v -20.903 		57.9571 		0
v -26.159 		0.688 		23.898
v 29.178 		46.623 		9.85
v 29.178 		46.14 		10.798
v 29.178 		45.974 		11.849
v 22.629 		5.337 		0
v 0.6934 		31.852 		0
v 2.2961 		33.8595 		0
v 25.003 		6.4121 		0
v 29.178 		46.14 		12.9
v -20.903 		50.944 		6.486
v 29.178 		46.623 		13.848
v 29.178 		47.376 		14.6
v 29.178 		48.324 		15.083
v -26.337 		0.339 		23.898
v -20.903 		52.582 		7.32
v -20.903 		8.8315 		0
v 25.26 		48.138 		15.654
v 22.8734 		63.663 		0
v 25.003 		62.3007 		0
v -26.614 		0.062 		23.898
v -20.4757 		5.337 		0
v 25.26 		50.612 		15.654
v 25.26 		49.375 		15.849
v 29.178 		50.426 		15.083
v 29.178 		51.374 		14.6
v 29.178 		52.127 		13.848
v 29.178 		52.61 		12.9
v 29.178 		52.776 		11.849
v 29.178 		52.61 		10.798
v 29.178 		52.127 		9.85
v -20.903 		45.673 		7.32
v -20.903 		63.663 		0
v 29.178 		26.898 		9.85
v 29.178 		26.415 		10.798
v 29.178 		26.249 		11.849
v 29.178 		32.402 		9.85
v 25.26 		53.377 		32.898
v -20.903 		25.948 		7.32
v 29.178 		30.701 		15.083
v 29.178 		31.649 		14.6
v 29.178 		32.402 		13.848
v 29.178 		26.415 		12.9
v 25.26 		63.758 		15.777
v 29.178 		26.898 		13.848
v 29.178 		27.651 		14.6
v 29.178 		28.599 		15.083
v 25.26 		63.7254 		15.8104
v 25.26 		63.803 		16.3
v 29.178 		32.885 		12.9
v 29.178 		33.052 		11.849
v 29.178 		32.885 		10.798
v 29.178 		48.324 		8.615
v 29.178 		47.376 		9.098
v -20.903 		8.8315 		2.5
v -20.903 		57.9571 		2.5
v -20.903 		61.9019 		2.5
v 29.178 		51.374 		9.098
v 29.178 		50.426 		8.615
v 29.178 		49.375 		8.448
v -20.903 		5.823 		7.32
v -20.903 		5.337 		7.806
v 29.178 		31.649 		9.098
v 29.178 		30.701 		8.615
v 29.178 		29.65 		8.448
v 29.178 		28.599 		8.615
v 29.178 		27.651 		9.098
v -27.35 		-0.177 		40.9
v -27.737 		-0.116 		40.9
v 29.178 		7.526 		9.098
v 29.178 		6.773 		9.85
v 29.178 		6.29 		10.798
v 29.178 		6.124 		11.849
v 29.178 		6.29 		12.9
v 29.178 		6.773 		13.848
v 29.178 		7.526 		14.6
v -20.903 		5.337 		2.5
v 25.26 		63.558 		17.846
v -26.963 		-0.116 		40.9
v -20.972 		-0.998 		7.898
v -20.903 		7.462 		6.486
v -28.086 		0.062 		40.9
v -28.363 		0.339 		40.9
v 29.178 		9.525 		15.249
v 29.178 		10.576 		15.083
v 29.178 		11.524 		14.6
v 29.178 		12.277 		13.848
v 29.178 		12.76 		12.9
v 29.178 		12.926 		11.849
v 29.178 		12.76 		10.798
v 29.178 		12.277 		9.85
v 25.26 		57.254 		21.058
v 29.178 		11.524 		9.098
v 29.178 		10.576 		8.615
v 29.178 		9.525 		8.448
v -28.541 		0.688 		40.9
v 29.178 		8.474 		8.615
v 29.178 		8.474 		15.083
v -28.603 		1.075 		40.9
v -28.541 		1.462 		40.9
v -28.363 		1.811 		40.9
v -20.972 		13.3104 		7.898
v -28.086 		2.088 		40.9
v -20.972 		20.0656 		7.898
v -27.737 		2.266 		40.9
v -27.35 		2.328 		40.9
v -20.972 		19.4347 		7.898
v -26.963 		2.266 		40.9
v -23.45 		66.823 		23.898
v -20.972 		33.436 		7.898
v -23.063 		66.884 		23.898
v -22.714 		67.062 		23.898
v 25.26 		60.346 		21.058
v -22.437 		67.339 		23.898
v -20.972 		39.8656 		7.898
v -26.614 		2.088 		40.9
v -26.337 		1.811 		40.9
v -26.159 		1.462 		40.9
v -20.972 		39.2347 		7.898
v -22.259 		67.688 		23.898
v -22.198 		68.075 		23.898
v -22.259 		68.462 		23.898
v 31.75 		66.823 		23.898
v -22.437 		68.811 		23.898
v 31.363 		66.884 		23.898
v -22.714 		69.088 		23.898
v -23.063 		69.266 		23.898
v -23.45 		69.328 		23.898
v -26.098 		1.075 		40.9
v -20.972 		53.1604 		7.898
v -26.159 		0.688 		40.9
v 31.014 		67.062 		23.898
v -23.601 		45.673 		16.827
v -26.337 		0.339 		40.9
v 25.26 		58.8 		21.303
v -23.601 		44.373 		15.528
v -20.972 		59.5656 		7.898
v 30.737 		67.339 		23.898
v -26.614 		0.062 		40.9
v -20.972 		58.9347 		7.898
v -20.972 		45.095 		7.898
v -23.601 		25.948 		16.827
v 32.763 		67.339 		23.898
v 26.837 		67.339 		23.898
v -26.098 		3.055 		40.9
v 27.114 		67.062 		23.898
v 27.463 		66.884 		23.898
v -23.45 		-0.177 		40.9
v -23.837 		-0.116 		40.9
v -20.972 		25.37 		7.898
v -23.601 		24.648 		15.528
v 32.486 		67.062 		23.898
v 25.26 		62.847 		19.24
v -24.703 		-0.177 		40.9
v 32.137 		66.884 		23.898
v -23.063 		-0.116 		40.9
v -23.601 		7.462 		6.486
v 25.26 		61.74 		20.347
v 27.463 		69.266 		23.898
v 27.114 		69.088 		23.898
v 26.837 		68.811 		23.898
v 26.659 		68.462 		23.898
v 26.597 		68.075 		23.898
v 26.659 		67.688 		23.898
v -24.641 		0.688 		40.9
v -20.972 		14.868 		13.89
v -23.601 		14.868 		13.89
v -23.601 		15.155 		12.074
v -20.972 		15.155 		12.074
v 30.559 		67.688 		23.898
v -24.703 		1.075 		40.9
v -24.641 		1.462 		40.9
v -23.601 		9.278 		6.198
v 30.498 		68.075 		23.898
v -23.601 		11.094 		6.486
v -24.186 		0.062 		40.9
v 30.559 		68.462 		23.898
v -23.601 		12.732 		7.32
v -24.463 		0.339 		40.9
v -20.972 		14.033 		8.62
v -23.601 		14.033 		8.62
v 30.737 		68.811 		23.898
v 25.26 		65.945 		32.898
v -20.972 		14.868 		10.258
v -23.601 		14.868 		10.258
v -24.463 		1.811 		40.9
v 31.014 		69.088 		23.898
v -24.186 		2.088 		40.9
v 25.26 		53.798 		16.3
v 25.26 		53.9691 		15.2156
v -22.002 		15.944 		10.613
v -20.972 		15.944 		10.613
v -23.837 		2.266 		40.9
v 31.363 		69.266 		23.898
v -23.45 		2.328 		40.9
v -22.002 		15.748 		11.849
v -20.972 		15.748 		11.849
v -23.063 		2.266 		40.9
v -22.002 		15.944 		13.085
v -20.972 		15.944 		13.085
v 31.75 		69.328 		23.898
v -22.714 		2.088 		40.9
v -22.714 		0.062 		40.9
v 32.137 		69.266 		23.898
v -22.002 		20.987 		8.044
v -20.972 		20.987 		8.044
v -22.002 		19.75 		7.848
v -22.437 		1.811 		40.9
v 32.486 		69.088 		23.898
v 25.26 		54.042 		17.846
v -22.002 		18.514 		8.044
v -20.972 		18.514 		8.044
v -22.259 		1.462 		40.9
v -20.972 		5.245 		7.898
v 32.763 		68.811 		23.898
v -22.198 		1.075 		40.9
v 31.363 		-0.116 		40.9
v 31.75 		-0.177 		40.9
v -22.002 		22.102 		15.085
v -22.259 		0.688 		40.9
v -20.972 		22.102 		15.085
v 32.941 		68.462 		23.898
v 25.003 		9.525 		7.848
v 25.003 		9.8406 		7.898
v -22.437 		0.339 		40.9
v 25.003 		9.2097 		7.898
v -22.002 		22.988 		14.2
v 32.137 		-0.116 		40.9
v -20.972 		22.988 		14.2
v 33.003 		68.075 		23.898
v -22.002 		23.556 		13.085
v 32.941 		67.688 		23.898
v 31.014 		0.062 		40.9
v -20.972 		23.556 		13.085
v 25.003 		23.5354 		7.898
v 30.737 		0.339 		40.9
v -22.002 		23.6207 		12.6772
v -20.972 		23.6207 		12.6772
v -20.972 		3.055 		40.9
v 30.559 		0.688 		40.9
v 25.003 		29.65 		7.848
v 25.003 		29.9656 		7.898
v -20.972 		23.6563 		11.2458
v -22.002 		23.6563 		11.2458
v 25.003 		29.3347 		7.898
v 30.497 		1.075 		40.9
v 25.26 		55.86 		20.347
v -20.972 		-0.998 		40.9
v -23.837 		-0.116 		23.898
v -22.002 		23.556 		10.613
v -20.972 		23.556 		10.613
v 30.559 		1.462 		40.9
v 25.26 		54.753 		19.24
v 27.85 		-0.177 		40.9
v 27.463 		-0.116 		40.9
v 30.737 		1.811 		40.9
v -24.641 		0.688 		23.898
v -24.703 		1.075 		23.898
v 28.237 		-0.116 		40.9
v -24.641 		1.462 		23.898
v -22.002 		22.988 		9.497
v -20.972 		22.988 		9.497
v 32.763 		1.811 		40.9
v 27.114 		0.062 		40.9
v 26.837 		0.339 		40.9
v -24.186 		0.062 		23.898
v 25.003 		43.3354 		7.898
v 26.659 		0.688 		40.9
v -22.002 		22.102 		8.612
v 32.763 		0.339 		40.9
v -20.972 		22.102 		8.612
v -24.463 		0.339 		23.898
v 32.486 		0.062 		40.9
v 26.597 		1.075 		40.9
v 25.26 		39.078 		20.9
v 26.659 		1.462 		40.9
v -24.463 		1.811 		23.898
v 25.26 		38.181 		20.758
v 26.837 		1.811 		40.9
v 25.003 		49.0594 		7.898
v -22.002 		17.398 		8.612
v -20.972 		17.398 		8.612
v 31.014 		2.088 		40.9
v 25.26 		37.372 		20.346
v 27.114 		2.088 		40.9
v -24.186 		2.088 		23.898
v -22.002 		16.513 		9.497
v -20.972 		16.513 		9.497
v 31.363 		2.266 		40.9
v 27.463 		2.266 		40.9
v 25.26 		36.731 		19.704
v -23.837 		2.266 		23.898
v 27.85 		2.328 		40.9
v 25.26 		36.319 		18.896
v 31.75 		2.328 		40.9
v 28.237 		2.266 		40.9
v -22.002 		16.513 		14.2
v -20.972 		16.513 		14.2
v 32.137 		2.266 		40.9
v 25.26 		36.177 		18
v 28.586 		2.088 		40.9
v 25.26 		36.319 		17.103
v 32.486 		2.088 		40.9
v -22.002 		17.398 		15.085
v -20.972 		17.398 		15.085
v 28.586 		0.062 		40.9
v 25.26 		36.3336 		17.0744
v 25.003 		49.375 		7.848
v 25.003 		49.6906 		7.898
v 28.863 		1.811 		40.9
v 32.941 		1.462 		40.9
v -20.972 		34.993 		13.89
v 29.041 		1.462 		40.9
v -20.972 		35.28 		12.074
v 33.002 		1.075 		40.9
v 25.26 		36.177 		32.898
v 25.003 		62.991 		7.898
v 27.776 		22.179 		18
v 27.776 		22.037 		18.896
v 32.941 		0.688 		40.9
v 25.003 		63.663 		7.898
v 27.776 		21.625 		19.704
v -20.972 		34.158 		8.62
v 27.776 		20.983 		20.346
v 25.003 		55.0144 		7.898
v 29.102 		3.055 		40.9
v 27.776 		20.174 		20.758
v -20.972 		34.993 		10.258
v -20.972 		65.945 		32.898
v -20.972 		65.945 		40.9
v 25.26 		35.848 		16.827
v 30.497 		-0.177 		40.9
v 25.003 		35.27 		7.898
v 27.776 		22.0653 		17.2816
v -21.79 		40.787 		8.044
v -20.972 		40.787 		8.044
v 25.26 		65.945 		40.9
v -21.79 		39.55 		7.848
v -20.972 		70 		40.9
v 25.26 		34.548 		15.528
v 25.003 		15.47 		7.898
v -21.79 		38.314 		8.044
v -20.972 		38.314 		8.044
v 27.776 		24.258 		15.528
v 27.776 		22.957 		16.827
v -21.79 		37.198 		8.612
v -20.972 		37.198 		8.612
v 25.003 		17.687 		6.486
v -21.79 		36.313 		9.497
v -20.972 		36.313 		9.497
v 25.003 		19.503 		6.198
v 25.003 		21.319 		6.486
v 25.26 		25.38 		12.074
v 25.26 		25.093 		13.89
v -21.79 		35.744 		10.613
v -20.972 		35.744 		10.613
v 25.003 		22.957 		7.32
v -21.79 		35.548 		11.849
v -20.972 		35.548 		11.849
v -21.79 		35.744 		13.085
v -20.972 		35.744 		13.085
v 25.26 		25.093 		10.258
v 27.776 		25.58 		28.601
v -21.79 		36.313 		14.2
v -20.972 		36.313 		14.2
v 25.26 		32.002 		15.085
v 25.003 		37.487 		6.486
v -21.79 		37.198 		15.085
v -20.972 		37.198 		15.085
v 25.003 		39.303 		6.198
v 25.26 		25.844 		10.613
v 25.26 		25.648 		11.849
v 25.003 		41.119 		6.486
v -21.79 		41.902 		15.085
v -20.972 		41.902 		15.085
v 25.26 		25.844 		13.085
v 27.989 		40.783 		20.346
v 25.003 		42.757 		7.32
v 25.26 		26.413 		14.2
v -21.79 		42.788 		14.2
v -20.972 		42.788 		14.2
v 25.26 		27.298 		15.085
v 27.989 		39.974 		20.758
v 25.26 		32.888 		14.2
v -21.79 		43.356 		13.085
v -20.972 		43.356 		13.085
v 25.26 		33.456 		13.085
v 27.989 		41.837 		18.896
v 27.989 		41.979 		18
v -21.79 		43.3832 		12.9137
v -20.972 		43.3832 		12.9137
v 25.003 		57.187 		6.493
v 25.26 		33.5207 		12.6772
v 27.989 		41.425 		19.704
v -20.972 		43.538 		13.89
v 25.003 		59.003 		6.198
v 25.003 		60.819 		6.493
v 25.26 		33.5563 		11.2458
v 25.003 		62.457 		7.35
v 25.26 		33.456 		10.613
v -20.972 		43.4188 		11.0093
v -21.79 		43.4188 		11.0093
v 27.989 		41.8653 		17.2816
v 25.26 		3.055 		40.9
v 25.26 		-0.998 		40.9
v -21.79 		43.356 		10.613
v -20.972 		43.356 		10.613
v -27.35 		66.823 		40.9
v -27.737 		66.884 		40.9
v -28.086 		67.062 		40.9
v 25.003 		55.548 		7.35
v -28.363 		67.339 		40.9
v 25.26 		45.18 		12.074
v 25.26 		44.893 		13.89
v -26.337 		67.339 		40.9
v -21.79 		42.788 		9.497
v -20.972 		42.788 		9.497
v -26.614 		67.062 		40.9
v 27.989 		44.058 		15.528
v -26.963 		66.884 		40.9
v -20.972 		43.538 		10.258
v 27.989 		42.757 		16.827
v -28.541 		67.688 		40.9
v 25.26 		44.893 		10.258
v 25.003 		35.848 		7.32
v -28.603 		68.075 		40.9
v -21.79 		41.902 		8.612
v -20.972 		41.902 		8.612
v -28.541 		68.462 		40.9
v 25.26 		45.569 		10.613
v -28.363 		68.811 		40.9
v -23.601 		15.355 		28.601
v 25.26 		45.373 		11.849
v -23.601 		15.355 		6.198
v 25.26 		45.569 		13.085
v -28.086 		69.088 		40.9
v 25.26 		46.138 		14.2
v -25.002 		16.349 		11.849
v -27.737 		69.266 		40.9
v 25.26 		47.023 		15.085
v -20.972 		54.718 		13.89
v -27.35 		69.328 		40.9
v -20.972 		55.005 		12.074
v -26.963 		69.266 		40.9
v -26.614 		69.088 		40.9
v 25.26 		51.727 		15.085
v -26.337 		68.811 		40.9
v -25.002 		23.152 		11.849
v -26.159 		68.462 		40.9
v 25.26 		52.612 		14.2
v -26.098 		68.075 		40.9
v -25.002 		22.985 		10.798
v -20.972 		53.883 		8.62
v -26.159 		67.688 		40.9
v 25.26 		53.181 		13.085
v -25.002 		22.502 		9.85
v -20.972 		54.718 		10.258
v -26.098 		70 		40.9
v -25.002 		21.749 		9.098
v 25.26 		53.2194 		12.8426
v -23.45 		66.823 		40.9
v 25.003 		63.663 		2.5
v -23.837 		66.884 		40.9
v 25.003 		62.3007 		2.5
v -25.002 		20.801 		8.615
v -21.377 		57.251 		9.098
v -24.186 		67.062 		40.9
v 25.003 		16.048 		7.32
v -25.002 		19.75 		8.448
v 25.26 		53.2793 		11.2326
v -24.463 		67.339 		40.9
v 25.26 		53.181 		10.613
v -25.002 		18.699 		8.615
v -24.703 		66.823 		40.9
v -21.377 		56.498 		9.85
v -22.437 		67.339 		40.9
v -25.002 		17.751 		9.098
v -22.714 		67.062 		40.9
v -25.002 		16.998 		9.85
v -23.063 		66.884 		40.9
v -25.002 		16.515 		10.798
v -24.641 		67.688 		40.9
v -24.703 		68.075 		40.9
v 25.003 		6.4121 		2.5
v 25.26 		64.88 		12.231
v 25.26 		64.593 		14.096
v -21.377 		56.015 		10.798
v -24.641 		68.462 		40.9
v 25.003 		5.337 		2.5
v 25.003 		5.337 		7.898
v -24.463 		68.811 		40.9
v -21.377 		56.898 		8.612
v -20.972 		56.898 		8.612
v 25.26 		-0.998 		7.898
v -24.186 		69.088 		40.9
v -25.002 		20.801 		15.083
v 25.26 		9.8406 		7.898
v -25.002 		19.75 		15.249
v -23.837 		69.266 		40.9
v 25.26 		9.2097 		7.898
v 25.26 		64.593 		10.367
v -23.45 		69.328 		40.9
v -25.002 		21.749 		14.6
v -23.063 		69.266 		40.9
v 25.26 		23.5354 		7.898
v -25.002 		22.502 		13.848
v -22.714 		69.088 		40.9
v -21.377 		55.849 		11.849
v 25.26 		29.9656 		7.898
v -22.437 		68.811 		40.9
v -25.002 		22.985 		12.9
v -21.377 		56.013 		9.497
v -22.259 		68.462 		40.9
v 25.26 		29.3347 		7.898
v -20.972 		56.013 		9.497
v -22.198 		68.075 		40.9
v -22.259 		67.688 		40.9
v 25.26 		43.3354 		7.898
v -25.002 		16.515 		12.9
v -25.002 		16.998 		13.848
v 25.26 		49.0594 		7.898
v 25.26 		53.413 		14.096
v -25.002 		17.751 		14.6
v 25.26 		49.6906 		7.898
v -21.377 		56.015 		12.9
v -25.002 		18.699 		15.083
v 25.26 		53.413 		10.367
v -21.377 		56.498 		13.848
v 25.26 		62.991 		7.898
v 25.26 		55.0144 		7.898
v -21.377 		57.251 		14.6
v 27.85 		66.823 		40.9
v 27.463 		66.884 		40.9
v 25.26 		35.27 		7.898
v 25.26 		33.713 		13.89
v 27.114 		67.062 		40.9
v 25.26 		15.47 		7.898
v 26.837 		67.339 		40.9
v 25.26 		33.713 		10.258
v 28.863 		67.339 		40.9
v 28.586 		67.062 		40.9
v 28.237 		66.884 		40.9
v -21.377 		56.013 		14.2
v -20.972 		56.013 		14.2
v 26.659 		67.688 		40.9
v -21.377 		56.898 		15.085
v -20.972 		56.898 		15.085
v 25.26 		24.258 		8.62
v 27.85 		66.823 		23.898
v 26.597 		68.075 		40.9
v 26.659 		68.462 		40.9
v 26.837 		68.811 		40.9
v 25.26 		32.002 		8.612
v 27.114 		69.088 		40.9
v 27.463 		69.266 		40.9
v 27.85 		69.328 		23.898
v 25.26 		27.298 		8.612
v 27.85 		69.328 		40.9
v 28.237 		69.266 		40.9
v 25.26 		26.413 		9.497
v -21.377 		60.301 		15.083
v 28.586 		69.088 		40.9
v 28.863 		68.811 		40.9
v 29.041 		68.462 		40.9
v 29.102 		68.075 		40.9
v 25.26 		32.888 		9.497
v 29.041 		67.688 		40.9
v -21.377 		61.249 		14.6
v 29.102 		70 		40.9
v 25.26 		44.058 		8.62
v 31.75 		66.823 		40.9
v 31.363 		66.884 		40.9
v 31.014 		67.062 		40.9
v -21.377 		62.002 		13.848
v 30.737 		67.339 		40.9
v 30.498 		66.823 		40.9
v 25.26 		47.023 		8.612
v 32.763 		67.339 		40.9
v 25.26 		46.138 		9.497
v 32.486 		67.062 		40.9
v -21.377 		62.485 		12.9
v 32.137 		66.884 		40.9
v -21.377 		61.602 		15.085
v -20.972 		61.602 		15.085
v 30.559 		67.688 		40.9
v 25.26 		52.612 		9.497
v 30.498 		68.075 		40.9
v 30.559 		68.462 		40.9
v 25.26 		51.727 		8.612
v 30.737 		68.811 		40.9
v 31.014 		69.088 		40.9
v 31.363 		69.266 		40.9
v 31.75 		69.328 		40.9
v -21.377 		62.651 		11.849
v 25.26 		63.758 		8.685
v 32.137 		69.266 		40.9
v 32.486 		69.088 		40.9
v -20.972 		8.156 		20.758
v -21.377 		62.487 		14.2
v -20.972 		62.487 		14.2
v 32.763 		68.811 		40.9
v -20.972 		7.347 		20.346
v 32.941 		68.462 		40.9
v -20.972 		6.706 		19.704
v 33.003 		68.075 		40.9
v -20.972 		6.294 		18.896
v 32.941 		67.688 		40.9
v -23.601 		23.325 		28.601
v -20.972 		6.152 		18
v 25.26 		54.248 		8.685
v -23.601 		35.48 		28.601
v -20.972 		6.294 		17.103
v -21.377 		62.485 		10.798
v -20.972 		6.3086 		17.0744
v -20.972 		11.812 		18.896
v -24.79 		40.601 		15.083
v -20.972 		11.954 		18
v -24.79 		39.55 		15.249
v -20.972 		11.4 		19.704
v -21.377 		62.002 		9.85
v -20.972 		10.758 		20.346
v 25.26 		34.548 		8.62
v -20.972 		9.949 		20.758
v -20.972 		9.053 		20.9
v -24.79 		40.601 		8.615
v -21.377 		61.249 		9.098
v 25.26 		70 		40.9
v -24.79 		39.55 		8.448
v -20.972 		11.8403 		17.2816
v -24.79 		38.499 		8.615
v 25.26 		30.887 		8.044
v -24.79 		37.551 		9.098
v -21.377 		60.301 		8.615
v -20.972 		14.033 		15.528
v -24.79 		36.798 		9.85
v -20.972 		12.732 		16.827
v 25.26 		28.414 		8.044
v -21.377 		62.487 		9.497
v -20.972 		62.487 		9.497
v -24.79 		36.315 		10.798
v -24.79 		36.149 		11.849
v -24.79 		36.315 		12.9
v -20.972 		19.75 		15.849
v -20.972 		20.987 		15.654
v -24.79 		36.798 		13.848
v -21.377 		59.25 		8.448
v -20.972 		70 		7.898
v -21.377 		61.602 		8.612
v -20.972 		61.602 		8.612
v -24.79 		37.551 		14.6
v -24.79 		38.499 		15.083
v 25.26 		70 		7.898
v -20.972 		18.514 		15.654
v -21.377 		58.199 		8.615
v 25.26 		48.138 		8.044
v -24.79 		41.549 		14.6
v -24.79 		42.302 		13.848
v -20.972 		23.752 		32.898
v -20.972 		28.281 		20.758
v -24.79 		42.785 		12.9
v -20.972 		27.472 		20.346
v -24.79 		42.952 		11.849
v -20.972 		26.831 		19.704
v 25.26 		50.612 		8.044
v -21.377 		58.199 		15.083
v -24.79 		42.785 		10.798
v -20.972 		26.419 		18.896
v -20.972 		26.277 		18
v -24.79 		42.302 		9.85
v -20.972 		26.419 		17.103
v -24.79 		41.549 		9.098
v -20.972 		26.4336 		17.0744
v -20.972 		31.937 		18.896
v -20.972 		32.079 		18
v -21.377 		63.056 		13.085
v -20.972 		63.056 		13.085
v -20.972 		31.525 		19.704
v -21.377 		63.252 		11.849
v -20.972 		63.252 		11.849
v -20.972 		30.883 		20.346
v 27.989 		45.38 		28.601
v -20.972 		30.074 		20.758
v -21.377 		63.056 		10.613
v -20.972 		63.056 		10.613
v -20.972 		29.178 		20.9
v -20.972 		31.9653 		17.2818
v -21.377 		60.487 		8.044
v -20.972 		60.487 		8.044
v 25.26 		16.377 		18
v -21.377 		59.25 		7.848
v -20.972 		34.158 		15.528
v -21.377 		58.014 		8.044
v -20.972 		58.014 		8.044
v -20.972 		32.858 		16.827
v 25.26 		19.278 		20.9
v 25.26 		18.381 		20.758
v 28.863 		67.339 		23.898
v 25.26 		17.572 		20.346
v 25.26 		16.931 		19.704
v 28.586 		67.062 		23.898
v -20.972 		39.55 		15.849
v -20.972 		40.787 		15.654
v 25.26 		16.519 		18.896
v -20.972 		38.314 		15.654
v -21.377 		55.444 		10.613
v -20.972 		55.444 		10.613
v 25.26 		16.519 		17.103
v 25.26 		16.5336 		17.0744
v -21.377 		55.248 		11.849
v -20.972 		55.248 		11.849
v 28.586 		69.088 		23.898
v 28.863 		68.811 		23.898
v 29.041 		68.462 		23.898
v 29.102 		68.075 		23.898
v 25.26 		16.048 		16.827
v 29.041 		67.688 		23.898
v -20.972 		48.903 		20.9
v 25.26 		14.748 		15.528
v -20.972 		48.006 		20.758
v 25.26 		13.913 		13.89
v -20.972 		47.197 		20.346
v 25.26 		13.625 		12.074
v 25.26 		13.913 		10.258
v -20.972 		46.556 		19.704
v 25.26 		14.748 		8.62
v -20.972 		46.143 		18.896
v -20.972 		46.001 		18
v -20.972 		46.143 		17.103
v -20.972 		46.1578 		17.074
v 25.26 		13.527 		11.849
v -23.601 		43.05 		28.601
v 25.26 		5.523 		11.849
v 25.26 		3.055 		32.898
v -20.972 		51.662 		18.896
v -23.601 		55.205 		28.601
v -20.972 		51.804 		18
v -20.972 		51.25 		19.704
v 25.26 		7.173 		8.612
v 26.177 		7.173 		8.612
v -20.972 		50.608 		20.346
v 25.26 		6.288 		9.497
v 26.177 		6.288 		9.497
v -20.972 		49.799 		20.758
v 25.26 		5.719 		10.613
v 26.177 		5.719 		10.613
v -24.377 		57.251 		9.098
v 26.177 		5.523 		11.849
v 25.26 		5.719 		13.085
v 26.177 		5.719 		13.085
v -24.377 		56.498 		9.85
v -20.972 		51.6903 		17.2816
v 25.26 		6.288 		14.2
v 26.177 		6.288 		14.2
v -24.377 		56.015 		10.798
v 25.26 		7.173 		15.085
v 26.177 		7.173 		15.085
v -24.377 		55.849 		11.849
v 25.26 		10.762 		15.654
v 26.177 		10.762 		15.654
v 26.177 		9.525 		15.849
v -24.377 		56.015 		12.9
v 25.26 		9.525 		15.849
v 25.26 		11.877 		15.085
v 26.177 		11.877 		15.085
v -20.972 		53.883 		15.528
v -24.377 		56.498 		13.848
v -20.972 		52.582 		16.827
v 25.26 		12.762 		14.2
v 26.177 		12.762 		14.2
v -24.377 		57.251 		14.6
v 25.26 		13.331 		13.085
v 26.177 		13.331 		13.085
v 26.177 		13.527 		11.849
v 25.26 		13.331 		10.613
v 26.177 		13.331 		10.613
v 25.26 		12.762 		9.497
v -24.377 		60.301 		15.083
v 26.177 		12.762 		9.497
v -24.377 		59.25 		15.249
v -21.377 		55.444 		13.085
v 25.26 		11.877 		8.612
v -20.972 		55.444 		13.085
v 26.177 		11.877 		8.612
v -24.377 		61.249 		14.6
v 25.26 		10.762 		8.044
v 26.177 		10.762 		8.044
v -24.377 		62.002 		13.848
v 26.177 		9.525 		7.848
v 25.26 		8.289 		8.044
v 26.177 		8.289 		8.044
v -24.377 		62.485 		12.9
v -24.377 		62.651 		11.849
v -20.972 		44.373 		8.62
v 25.26 		8.289 		15.654
v 26.177 		8.289 		15.654
v -24.377 		62.485 		10.798
v -21.79 		40.601 		15.083
v -24.377 		62.002 		9.85
v -21.79 		40.601 		8.615
v -21.79 		39.55 		8.448
v 28.401 		63.758 		15.777
v -21.79 		38.499 		8.615
v -24.377 		61.249 		9.098
v -20.972 		59.25 		15.849
v -20.972 		60.487 		15.654
v 28.401 		63.803 		16.3
v -21.79 		37.551 		9.098
v 28.401 		63.7254 		15.8104
v -21.79 		36.798 		9.85
v -24.377 		60.301 		8.615
v -24.377 		59.25 		8.448
v -21.79 		36.315 		10.798
v -24.377 		58.199 		8.615
v -21.79 		36.149 		11.849
v -21.79 		36.315 		12.9
v -20.972 		58.014 		15.654
v -21.79 		36.798 		13.848
v -24.377 		58.199 		15.083
v -21.79 		37.551 		14.6
v 26.177 		30.887 		15.654
v 26.177 		29.65 		15.849
v -21.79 		38.499 		15.083
v -23.837 		66.884 		23.898
v 28.401 		63.558 		17.846
v -24.186 		67.062 		23.898
v -20.972 		45.673 		16.827
v -21.79 		41.549 		14.6
v -24.186 		69.088 		23.898
v -20.972 		44.373 		15.528
v 28.401 		57.254 		21.058
v -21.79 		42.302 		13.848
v -23.837 		69.266 		23.898
v -21.79 		42.785 		12.9
v -21.79 		42.952 		11.849
v -21.79 		42.785 		10.798
v -20.972 		25.948 		16.827
v -21.79 		42.302 		9.85
v -20.972 		24.648 		15.528
v 28.401 		60.346 		21.058
v -21.79 		41.549 		9.098
v -21.79 		43.25 		12.074
v 28.401 		58.8 		21.303
v 26.177 		28.414 		15.654
v -20.972 		3.055 		32.898
v 28.401 		62.847 		19.24
v 28.401 		61.74 		20.347
v -24.463 		67.339 		23.898
v 28.401 		53.9691 		15.2156
v 28.401 		53.798 		16.3
v 26.177 		48.138 		15.654
v -24.641 		67.688 		23.898
v -24.703 		68.075 		23.898
v 26.177 		50.612 		15.654
v 26.177 		49.375 		15.849
v -24.641 		68.462 		23.898
v -24.463 		68.811 		23.898
v 28.401 		54.042 		17.846
v 28.401 		55.86 		20.347
v 28.401 		54.753 		19.24
v -23.601 		23.325 		6.198
v -23.601 		35.48 		6.198
v -27.35 		66.823 		23.898
v -27.737 		66.884 		23.898
v 28.237 		66.884 		23.898
v -28.086 		67.062 		23.898
v 28.237 		69.266 		23.898
v -28.363 		67.339 		23.898
v -26.337 		67.339 		23.898
v -26.614 		67.062 		23.898
v -26.963 		66.884 		23.898
v -28.541 		67.688 		23.898
v -28.603 		68.075 		23.898
v -28.541 		68.462 		23.898
v 27.776 		17.687 		6.486
v -28.363 		68.811 		23.898
v 27.776 		19.503 		6.198
v -28.086 		69.088 		23.898
v 27.776 		21.319 		6.486
v -27.737 		69.266 		23.898
v 27.776 		22.957 		7.32
v -27.35 		69.328 		23.898
v -26.963 		69.266 		23.898
v -26.614 		69.088 		23.898
v 27.989 		39.078 		20.9
v -26.337 		68.811 		23.898
v -20.972 		23.813 		13.89
v 27.989 		38.181 		20.758
v -26.159 		68.462 		23.898
v 27.989 		37.372 		20.346
v 26.177 		32.002 		15.085
v -26.098 		68.075 		23.898
v -20.972 		23.813 		10.258
v -20.972 		24.648 		8.62
v 27.989 		36.731 		19.704
v -26.159 		67.688 		23.898
v 26.177 		25.844 		10.613
v 27.989 		36.319 		18.896
v 26.177 		25.648 		11.849
v 27.989 		36.177 		18
v 26.177 		25.844 		13.085
v 27.989 		36.319 		17.103
v 26.177 		26.413 		14.2
v 26.177 		27.298 		15.085
v 27.989 		36.3336 		17.0744
v 26.177 		32.888 		14.2
v 26.177 		33.456 		13.085
v 26.177 		33.5207 		12.6772
v 26.177 		33.5563 		11.2458
v 26.177 		33.456 		10.613
v 27.776 		25.58 		6.198
v 27.989 		37.487 		6.486
v 27.989 		39.303 		6.198
v -22.002 		16.349 		11.849
v 27.989 		41.119 		6.486
v 26.177 		45.569 		10.613
v 27.989 		42.757 		7.32
v -22.002 		23.152 		11.849
v 27.989 		35.848 		16.827
v 26.177 		45.373 		11.849
v -22.002 		22.985 		10.798
v 26.177 		45.569 		13.085
v -22.002 		22.502 		9.85
v 26.177 		46.138 		14.2
v -22.002 		21.749 		9.098
v 26.177 		47.023 		15.085
v -22.002 		20.801 		8.615
v 27.989 		34.548 		15.528
v 26.177 		51.727 		15.085
v -22.002 		19.75 		8.448
v -22.002 		18.699 		8.615
v 26.177 		52.612 		14.2
v -22.002 		17.751 		9.098
v 26.177 		53.181 		13.085
v -22.002 		16.998 		9.85
v 26.177 		53.2194 		12.8426
v 27.989 		33.425 		28.601
v -22.002 		16.515 		10.798
v 27.989 		33.225 		28.601
v 26.177 		53.2793 		11.2326
v 26.177 		53.181 		10.613
v 27.989 		45.38 		6.198
v -22.002 		20.801 		15.083
v -22.002 		21.749 		14.6
v 28.401 		52.925 		6.198
v 28.401 		65.08 		6.198
v -22.002 		22.502 		13.848
v 28.401 		57.187 		6.493
v 28.401 		59.003 		6.198
v -22.002 		22.985 		12.9
v 28.401 		60.819 		6.493
v 28.401 		62.457 		7.35
v -22.002 		16.515 		12.9
v -22.002 		16.998 		13.848
v -22.002 		17.751 		14.6
v 28.401 		55.548 		7.35
v -22.002 		18.699 		15.083
v 28.401 		52.925 		29.201
v -22.002 		23.525 		12.074
v 28.401 		65.08 		29.201
v -20.972 		5.823 		16.827
v -20.972 		4.523 		15.528
v -20.972 		3.688 		13.89
v -20.972 		3.4 		12.074
v 27.989 		35.848 		7.32
v -20.972 		3.688 		10.258
v -20.972 		4.523 		8.62
v 26.177 		32.002 		8.612
v 26.177 		27.298 		8.612
v 26.177 		26.413 		9.497
v 27.989 		33.425 		6.198
v 26.177 		32.888 		9.497
v 27.989 		33.225 		6.198
v -23.601 		8.156 		20.758
v -23.601 		7.347 		20.346
v 26.177 		47.023 		8.612
v 26.177 		46.138 		9.497
v -23.601 		6.706 		19.704
v -23.601 		6.294 		18.896
v -23.601 		6.152 		18
v 27.776 		16.048 		7.32
v -23.601 		6.294 		17.103
v 26.177 		52.612 		9.497
v -23.601 		6.3086 		17.0744
v 26.177 		51.727 		8.612
v -23.601 		11.812 		18.896
v -23.601 		11.954 		18
v -23.601 		11.4 		19.704
v 27.776 		13.625 		6.198
v -23.601 		10.758 		20.346
v -23.601 		9.949 		20.758
v 27.776 		13.425 		6.198
v -23.601 		9.053 		20.9
v 27.85 		-0.177 		23.898
v 27.463 		-0.116 		23.898
v -23.601 		11.8403 		17.2816
v 28.237 		-0.116 		23.898
v -23.601 		14.033 		15.528
v 27.114 		0.062 		23.898
v -23.601 		12.732 		16.827
v 26.837 		0.339 		23.898
v 26.177 		30.887 		8.044
v -22.002 		20.987 		15.654
v 26.659 		0.688 		23.898
v -22.002 		19.75 		15.849
v 26.177 		29.65 		7.848
v 26.177 		28.414 		8.044
v 26.597 		1.075 		23.898
v -22.002 		18.514 		15.654
v 26.659 		1.462 		23.898
v 26.837 		1.811 		23.898
v 27.114 		2.088 		23.898
v -23.601 		34.993 		13.89
v -23.601 		35.28 		12.074
v 26.177 		48.138 		8.044
v 27.463 		2.266 		23.898
v 27.85 		2.328 		23.898
v -23.601 		34.158 		8.62
v 26.177 		50.612 		8.044
v 28.237 		2.266 		23.898
v -23.601 		34.993 		10.258
v 28.586 		2.088 		23.898
v 26.177 		49.375 		7.848
v 28.586 		0.062 		23.898
v 28.863 		1.811 		23.898
v 29.041 		1.462 		23.898
v 29.102 		1.075 		23.898
v 29.041 		0.688 		23.898
v 28.863 		0.339 		23.898
v -21.79 		40.787 		15.654
v -21.79 		39.55 		15.849
v -21.79 		38.314 		15.654
v 26.177 		7.526 		9.098
v 26.177 		6.773 		9.85
v 26.177 		6.29 		10.798
v 26.177 		6.124 		11.849
v 26.177 		6.29 		12.9
v 26.177 		6.773 		13.848
v 26.177 		7.526 		14.6
v -23.601 		54.718 		13.89
v -23.601 		55.005 		12.074
v 26.177 		10.576 		15.083
v 26.177 		9.525 		15.249
v -23.601 		53.883 		8.62
v 26.177 		11.524 		14.6
v -23.601 		54.718 		10.258
v 26.177 		12.277 		13.848
v 26.177 		12.76 		12.9
v 26.177 		12.926 		11.849
v 26.177 		12.76 		10.798
v 26.177 		12.277 		9.85
v 26.177 		11.524 		9.098
v 26.177 		10.576 		8.615
v 27.776 		25.093 		13.89
v 27.776 		25.38 		12.074
v 26.177 		9.525 		8.448
v 27.776 		25.093 		10.258
v 26.177 		8.474 		8.615
v 26.177 		32.402 		9.85
v 26.177 		8.474 		15.083
v 26.177 		26.898 		9.85
v -21.377 		59.25 		15.249
v 26.177 		26.415 		10.798
v 26.177 		26.249 		11.849
v 26.177 		29.65 		15.249
v 26.177 		30.701 		15.083
v 26.177 		31.649 		14.6
v 26.177 		32.402 		13.848
v 26.177 		26.415 		12.9
v 26.177 		26.898 		13.848
v 26.177 		27.651 		14.6
v -21.377 		60.487 		15.654
v 26.177 		28.599 		15.083
v -21.377 		59.25 		15.849
v 26.177 		49.375 		15.249
v -21.377 		58.014 		15.654
v 26.177 		32.885 		12.9
v 26.177 		33.052 		11.849
v 26.177 		32.885 		10.798
v -23.601 		43.538 		13.89
v -21.79 		39.55 		15.249
v -23.601 		43.25 		12.074
v 26.177 		46.623 		9.85
v -23.601 		43.538 		10.258
v -23.601 		44.373 		8.62
v 26.177 		46.14 		10.798
v 26.177 		45.974 		11.849
v -23.601 		23.813 		13.89
v 26.177 		46.14 		12.9
v -23.601 		23.525 		12.074
v 26.177 		46.623 		13.848
v -23.601 		23.813 		10.258
v 26.177 		47.376 		14.6
v -23.601 		24.648 		8.62
v 26.177 		48.324 		15.083
v -23.601 		27.587 		6.486
v -23.601 		29.403 		6.198
v -23.601 		31.219 		6.486
v 26.177 		50.426 		15.083
v -23.601 		32.858 		7.32
v 26.177 		51.374 		14.6
v 26.177 		52.127 		13.848
v -23.601 		47.312 		6.486
v -23.601 		49.128 		6.198
v 26.177 		52.61 		12.9
v -23.601 		50.944 		6.486
v 26.177 		52.776 		11.849
v -23.601 		52.582 		7.32
v 26.177 		52.61 		10.798
v 26.177 		52.127 		9.85
v -23.601 		25.948 		7.32
v -23.601 		5.823 		16.827
v -23.601 		4.523 		15.528
v -23.601 		3.688 		13.89
v -23.601 		3.4 		12.074
v -23.601 		3.688 		10.258
v -23.601 		4.523 		8.62
v -23.601 		5.823 		7.32
v -23.45 		-0.177 		23.898
v -23.063 		-0.116 		23.898
v -23.45 		2.328 		23.898
v 26.177 		53.125 		12.231
v -23.063 		2.266 		23.898
v -22.714 		2.088 		23.898
v -22.437 		1.811 		23.898
v -22.259 		1.462 		23.898
v -22.198 		1.075 		23.898
v -22.259 		0.688 		23.898
v -22.437 		0.339 		23.898
v 26.177 		33.425 		12.074
v -22.714 		0.062 		23.898
v -17.401 		5.245 		7.898
v -17.401 		5.337 		7.898
v -22.002 		19.75 		15.249
v -23.601 		28.281 		20.758
v -23.601 		27.472 		20.346
v -23.601 		26.831 		19.704
v -23.601 		26.419 		18.896
v -23.601 		26.277 		18
v -23.601 		26.419 		17.103
v -23.601 		26.4336 		17.0744
v 31.75 		-0.177 		23.898
v 31.363 		-0.116 		23.898
v -23.601 		31.937 		18.896
v -23.601 		32.079 		18
v 32.137 		-0.116 		23.898
v -23.601 		31.525 		19.704
v 31.014 		0.062 		23.898
v -23.601 		30.883 		20.346
v 30.737 		0.339 		23.898
v 26.177 		31.649 		9.098
v -23.601 		30.074 		20.758
v 30.559 		0.688 		23.898
v 27.989 		44.893 		13.89
v 26.177 		30.701 		8.615
v -23.601 		29.178 		20.9
v 27.989 		45.18 		12.074
v 30.497 		1.075 		23.898
v 30.559 		1.462 		23.898
v 26.177 		29.65 		8.448
v -23.601 		31.9653 		17.2818
v 27.989 		44.893 		10.258
v 30.737 		1.811 		23.898
v 26.177 		28.599 		8.615
v 31.014 		2.088 		23.898
v 26.177 		27.651 		9.098
v 31.363 		2.266 		23.898
v 31.75 		2.328 		23.898
v 32.137 		2.266 		23.898
v -23.601 		34.158 		15.528
v 32.486 		2.088 		23.898
v -23.601 		32.858 		16.827
v 32.763 		1.811 		23.898
v 26.177 		48.324 		8.615
v 32.763 		0.339 		23.898
v 26.177 		47.376 		9.098
v 32.486 		0.062 		23.898
v -23.601 		48.903 		20.9
v 32.941 		1.462 		23.898
v -23.601 		48.006 		20.758
v 33.002 		1.075 		23.898
v -23.601 		47.197 		20.346
v 32.941 		0.688 		23.898
v -23.601 		46.556 		19.704
v -23.601 		46.143 		18.896
v 26.177 		51.374 		9.098
v -23.601 		46.001 		18
v -23.601 		46.143 		17.103
v 26.177 		50.426 		8.615
v -23.601 		46.1578 		17.074
v 26.177 		49.375 		8.448
v -23.601 		51.662 		18.896
v -23.601 		51.804 		18
v -23.601 		51.25 		19.704
v -23.601 		50.608 		20.346
v -23.601 		49.799 		20.758
v -23.601 		51.6903 		17.2816
v -23.601 		53.883 		15.528
v -23.601 		52.582 		16.827
v -0.9438 		33.8311 		2.5
v 0.6589 		35.8385 		2.5
v 2.2961 		33.8595 		2.5
v 0.6934 		31.852 		2.5
v 22.629 		5.337 		2.5
v 22.8734 		63.663 		2.5
v -20.4757 		5.337 		2.5
v -17.401 		5.337 		7.806
v 28.401 		64.593 		14.096
v 28.401 		64.88 		12.231
v 28.401 		64.593 		10.367
v 28.401 		53.413 		14.096
v 28.401 		53.125 		12.231
v 28.401 		53.413 		10.367
v 27.989 		33.713 		13.89
v 27.989 		33.425 		12.074
v 27.989 		33.713 		10.258
v 27.776 		24.258 		8.62
v 27.989 		44.058 		8.62
v 28.401 		63.758 		8.685
v 28.401 		54.248 		8.685
v 27.989 		34.548 		8.62
v 27.776 		19.278 		20.9
v 27.776 		18.381 		20.758
v 27.776 		17.572 		20.346
v 27.776 		16.931 		19.704
v 27.776 		16.519 		18.896
v 27.776 		16.519 		17.103
v 27.776 		16.5336 		17.0744
# 1349 vertices

g group_0_15277357

usemtl color_15277357
s 0

f 3 	1 	2
f 22 	438 	17
f 1347 	1346 	78
f 27 	438 	22
f 9 	1 	20
f 20 	13 	9
f 25 	9 	13
f 8 	9 	5
f 31 	76 	9
f 25 	31 	9
f 5 	9 	76
f 64 	25 	13
f 34 	123 	33
f 31 	68 	76
f 26 	1347 	78
f 855 	438 	817
f 69 	20 	21
f 13 	65 	64
f 39 	438 	37
f 21 	72 	69
f 32 	15 	39
f 16 	438 	15
f 39 	15 	438
f 16 	17 	438
f 21 	20 	1
f 52 	21 	1
f 41 	45 	43
f 38 	41 	43
f 47 	438 	46
f 89 	81 	1
f 504 	438 	54
f 438 	413 	46
f 54 	438 	47
f 26 	78 	30
f 78 	44 	42
f 78 	42 	40
f 44 	1110 	51
f 53 	51 	1110
f 76 	68 	64
f 69 	76 	65
f 72 	89 	69
f 64 	65 	76
f 61 	160 	75
f 63 	160 	61
f 81 	89 	72
f 76 	69 	89
f 52 	1 	81
f 80 	1113 	44
f 78 	80 	44
f 1110 	44 	1113
f 161 	18 	139
f 89 	1 	3
f 90 	92 	93
f 87 	123 	91
f 94 	95 	96
f 91 	123 	34
f 45 	117 	43
f 147 	148 	100
f 98 	99 	101
f 98 	101 	102
f 105 	106 	107
f 105 	107 	108
f 97 	91 	36
f 110 	70 	160
f 112 	95 	111
f 29 	97 	36
f 84 	70 	110
f 92 	95 	108
f 108 	98 	92
f 98 	102 	92
f 102 	43 	92
f 93 	92 	43
f 105 	108 	95
f 112 	105 	95
f 119 	111 	95
f 119 	95 	94
f 103 	110 	160
f 71 	160 	70
f 93 	43 	117
f 117 	45 	101
f 117 	101 	99
f 117 	99 	107
f 106 	119 	107
f 111 	119 	106
f 117 	107 	119
f 122 	123 	121
f 120 	121 	123
f 128 	129 	130
f 128 	130 	131
f 71 	75 	160
f 136 	176 	125
f 136 	125 	126
f 136 	126 	127
f 132 	135 	127
f 134 	135 	132
f 136 	127 	135
f 121 	130 	122
f 141 	142 	121
f 130 	121 	142
f 130 	129 	122
f 139 	122 	129
f 144 	139 	129
f 140 	562 	160
f 89 	117 	128
f 133 	178 	138
f 146 	140 	160
f 148 	149 	100
f 149 	150 	100
f 150 	151 	100
f 151 	152 	100
f 152 	153 	100
f 153 	180 	100
f 180 	181 	100
f 138 	178 	50
f 178 	179 	58
f 155 	119 	141
f 74 	33 	154
f 120 	119 	155
f 139 	117 	123
f 120 	123 	119
f 185 	186 	158
f 185 	158 	159
f 139 	144 	117
f 141 	76 	142
f 115 	154 	33
f 36 	91 	34
f 83 	18 	161
f 18 	19 	139
f 19 	23 	139
f 164 	158 	163
f 163 	158 	162
f 165 	109 	158
f 162 	158 	109
f 109 	165 	167
f 109 	167 	168
f 109 	168 	169
f 177 	139 	23
f 170 	171 	166
f 76 	141 	119
f 174 	158 	173
f 172 	173 	158
f 159 	158 	174
f 164 	172 	158
f 12 	23 	14
f 144 	128 	117
f 119 	123 	117
f 136 	100 	176
f 60 	50 	178
f 58 	60 	178
f 116 	123 	133
f 87 	86 	139
f 86 	161 	139
f 11 	6 	177
f 11 	177 	12
f 23 	12 	177
f 6 	203 	177
f 115 	33 	123
f 139 	123 	87
f 57 	58 	179
f 66 	57 	179
f 66 	179 	155
f 155 	179 	120
f 181 	182 	100
f 182 	175 	100
f 175 	176 	100
f 89 	131 	142
f 89 	142 	76
f 178 	133 	123
f 116 	115 	123
f 157 	158 	186
f 156 	157 	186
f 187 	188 	186
f 189 	186 	188
f 156 	186 	189
f 128 	131 	89
f 193 	194 	192
f 192 	194 	195
f 192 	195 	196
f 192 	196 	197
f 192 	197 	198
f 246 	632 	629
f 93 	276 	190
f 275 	305 	200
f 205 	93 	204
f 218 	93 	205
f 206 	207 	208
f 206 	208 	209
f 206 	209 	210
f 206 	210 	211
f 206 	211 	212
f 206 	212 	213
f 206 	213 	215
f 206 	215 	216
f 206 	216 	217
f 206 	217 	219
f 206 	219 	192
f 198 	220 	192
f 206 	192 	220
f 295 	6 	297
f 11 	297 	6
f 221 	93 	218
f 297 	11 	300
f 12 	300 	11
f 224 	300 	12
f 224 	12 	14
f 226 	329 	19
f 226 	19 	18
f 228 	90 	227
f 227 	90 	225
f 19 	329 	229
f 19 	229 	23
f 1221 	97 	232
f 234 	954 	233
f 236 	954 	234
f 237 	460 	34
f 237 	34 	33
f 34 	460 	241
f 34 	241 	36
f 287 	293 	253
f 236 	242 	243
f 236 	243 	244
f 236 	244 	246
f 236 	246 	248
f 236 	248 	249
f 236 	249 	250
f 1229 	138 	252
f 253 	256 	276
f 257 	305 	235
f 57 	259 	58
f 812 	58 	259
f 261 	276 	256
f 58 	812 	262
f 58 	262 	60
f 201 	276 	261
f 74 	154 	263
f 230 	267 	228
f 238 	267 	230
f 239 	267 	238
f 293 	294 	240
f 90 	228 	267
f 214 	160 	257
f 83 	161 	272
f 298 	276 	271
f 270 	271 	276
f 87 	1218 	86
f 270 	370 	278
f 283 	284 	282
f 281 	282 	284
f 281 	284 	285
f 281 	285 	286
f 281 	286 	266
f 203 	295 	279
f 91 	1218 	87
f 749 	774 	305
f 288 	289 	290
f 288 	290 	291
f 239 	240 	294
f 280 	305 	275
f 235 	305 	280
f 97 	1221 	91
f 203 	6 	295
f 29 	232 	97
f 301 	276 	298
f 1225 	115 	116
f 300 	224 	303
f 302 	303 	224
f 287 	253 	301
f 608 	305 	774
f 200 	305 	171
f 306 	307 	303
f 306 	303 	302
f 291 	290 	307
f 291 	307 	306
f 138 	1229 	133
f 315 	267 	310
f 308 	310 	267
f 410 	313 	314
f 317 	267 	315
f 318 	319 	314
f 318 	314 	313
f 50 	252 	138
f 321 	322 	319
f 321 	319 	318
f 419 	322 	321
f 370 	325 	278
f 329 	226 	327
f 328 	327 	226
f 333 	334 	229
f 333 	229 	329
f 183 	1239 	184
f 568 	145 	311
f 1239 	183 	279
f 338 	361 	335
f 343 	341 	351
f 349 	351 	341
f 325 	370 	347
f 351 	349 	353
f 351 	353 	356
f 320 	361 	317
f 324 	361 	320
f 330 	361 	324
f 267 	317 	361
f 356 	353 	359
f 356 	359 	360
f 330 	335 	361
f 342 	370 	338
f 342 	347 	370
f 361 	338 	370
f 276 	301 	253
f 251 	253 	293
f 240 	251 	293
f 267 	239 	294
f 294 	308 	267
f 365 	366 	373
f 93 	370 	276
f 201 	190 	276
f 191 	93 	190
f 191 	204 	93
f 270 	276 	370
f 373 	366 	372
f 369 	160 	214
f 222 	90 	221
f 223 	90 	222
f 225 	90 	223
f 93 	221 	90
f 375 	160 	369
f 160 	375 	332
f 527 	454 	376
f 384 	373 	383
f 372 	383 	373
f 387 	527 	386
f 332 	311 	145
f 305 	257 	160
f 390 	527 	387
f 391 	393 	383
f 384 	383 	393
f 562 	103 	160
f 526 	527 	396
f 327 	328 	391
f 393 	391 	328
f 401 	526 	398
f 403 	404 	333
f 334 	333 	404
f 407 	526 	401
f 409 	410 	404
f 403 	409 	404
f 412 	526 	407
f 413 	438 	406
f 448 	526 	415
f 313 	410 	409
f 453 	462 	46
f 417 	1289 	421
f 322 	419 	420
f 1290 	1292 	421
f 426 	427 	420
f 426 	420 	419
f 429 	453 	424
f 432 	448 	423
f 397 	438 	63
f 400 	438 	397
f 406 	438 	400
f 416 	46 	413
f 160 	63 	438
f 362 	368 	7
f 368 	374 	435
f 441 	485 	444
f 7 	10 	454
f 424 	453 	422
f 418 	448 	415
f 423 	448 	418
f 4 	7 	368
f 412 	415 	526
f 1221 	232 	1139
f 445 	1139 	232
f 444 	485 	446
f 450 	1142 	445
f 451 	452 	95
f 96 	95 	452
f 1142 	450 	436
f 488 	46 	462
f 395 	350 	3
f 340 	3 	350
f 459 	9 	8
f 422 	453 	46
f 339 	355 	454
f 9 	459 	305
f 358 	454 	355
f 460 	237 	457
f 458 	457 	237
f 461 	452 	451
f 362 	7 	358
f 464 	465 	241
f 464 	241 	460
f 657 	506 	462
f 416 	422 	46
f 468 	469 	465
f 468 	465 	464
f 378 	448 	374
f 448 	432 	374
f 466 	485 	467
f 471 	472 	469
f 471 	469 	468
f 456 	467 	440
f 438 	504 	37
f 477 	478 	472
f 471 	477 	472
f 433 	2 	385
f 480 	481 	478
f 480 	478 	477
f 449 	446 	485
f 440 	485 	441
f 395 	3 	392
f 357 	367 	479
f 482 	483 	481
f 482 	481 	480
f 440 	467 	485
f 483 	482 	487
f 486 	487 	482
f 378 	405 	448
f 411 	448 	405
f 2 	448 	417
f 490 	491 	487
f 486 	490 	487
f 385 	2 	425
f 421 	425 	2
f 497 	496 	503
f 502 	503 	496
f 476 	37 	501
f 498 	476 	501
f 501 	37 	504
f 430 	431 	142
f 392 	3 	442
f 507 	508 	502
f 503 	502 	508
f 389 	402 	500
f 488 	462 	506
f 421 	2 	417
f 411 	417 	448
f 508 	507 	512
f 508 	512 	513
f 2 	433 	437
f 442 	3 	437
f 2 	437 	3
f 657 	515 	509
f 509 	506 	657
f 432 	435 	374
f 435 	4 	368
f 454 	358 	7
f 428 	454 	10
f 55 	62 	48
f 49 	48 	56
f 517 	513 	512
f 584 	586 	521
f 339 	454 	340
f 527 	3 	454
f 428 	381 	454
f 381 	376 	454
f 377 	527 	376
f 377 	386 	527
f 3 	340 	454
f 443 	584 	439
f 396 	398 	526
f 390 	396 	527
f 523 	524 	528
f 523 	528 	529
f 521 	439 	584
f 88 	85 	55
f 85 	82 	55
f 82 	79 	55
f 79 	77 	55
f 77 	73 	55
f 55 	73 	67
f 55 	67 	62
f 59 	48 	62
f 56 	48 	59
f 543 	524 	523
f 431 	447 	533
f 84 	110 	525
f 113 	55 	114
f 104 	55 	113
f 88 	55 	104
f 118 	114 	55
f 118 	55 	143
f 118 	143 	137
f 118 	137 	124
f 529 	528 	538
f 529 	538 	539
f 562 	559 	103
f 379 	394 	414
f 379 	414 	380
f 430 	142 	402
f 431 	533 	142
f 586 	142 	518
f 514 	142 	533
f 539 	538 	549
f 539 	549 	550
f 408 	399 	414
f 399 	382 	414
f 382 	380 	414
f 414 	394 	388
f 388 	371 	414
f 553 	94 	551
f 556 	554 	102
f 556 	102 	101
f 558 	94 	553
f 457 	458 	549
f 550 	549 	458
f 555 	535 	557
f 561 	94 	558
f 580 	94 	564
f 557 	536 	559
f 536 	103 	559
f 363 	364 	489
f 145 	146 	160
f 367 	363 	474
f 489 	474 	363
f 547 	489 	364
f 455 	547 	364
f 160 	332 	145
f 311 	312 	568
f 575 	1165 	252
f 537 	596 	576
f 566 	580 	564
f 567 	580 	566
f 569 	580 	567
f 605 	610 	571
f 561 	564 	94
f 479 	367 	474
f 489 	492 	474
f 495 	500 	142
f 500 	402 	142
f 514 	518 	142
f 518 	519 	586
f 519 	521 	586
f 492 	495 	142
f 142 	474 	492
f 644 	582 	577
f 577 	572 	644
f 1048 	581 	587
f 473 	474 	142
f 593 	596 	589
f 473 	131 	470
f 585 	589 	596
f 131 	473 	142
f 1056 	599 	601
f 590 	470 	131
f 583 	452 	602
f 634 	614 	597
f 604 	576 	593
f 345 	606 	348
f 590 	606 	463
f 345 	346 	606
f 346 	463 	606
f 606 	590 	131
f 265 	260 	254
f 265 	254 	247
f 265 	247 	245
f 277 	274 	245
f 265 	245 	274
f 611 	612 	606
f 348 	606 	612
f 614 	615 	815
f 345 	619 	346
f 615 	614 	634
f 615 	634 	637
f 608 	166 	171
f 622 	345 	348
f 624 	580 	621
f 588 	597 	614
f 609 	827 	597
f 607 	774 	623
f 357 	479 	627
f 337 	331 	344
f 331 	326 	344
f 352 	344 	326
f 352 	326 	323
f 352 	323 	316
f 309 	354 	316
f 304 	354 	309
f 299 	354 	304
f 296 	354 	299
f 292 	265 	296
f 260 	265 	292
f 354 	296 	265
f 352 	316 	354
f 363 	1127 	631
f 363 	631 	364
f 774 	607 	608
f 171 	305 	608
f 636 	1127 	363
f 636 	363 	367
f 389 	500 	640
f 637 	634 	827
f 637 	827 	828
f 626 	461 	624
f 629 	461 	626
f 632 	461 	629
f 635 	461 	632
f 580 	624 	461
f 634 	597 	827
f 630 	831 	609
f 572 	568 	312
f 644 	572 	312
f 638 	461 	635
f 639 	452 	638
f 598 	452 	639
f 452 	598 	600
f 430 	1144 	646
f 430 	646 	431
f 592 	649 	594
f 902 	831 	647
f 402 	643 	430
f 604 	605 	576
f 596 	593 	576
f 540 	596 	537
f 542 	596 	540
f 573 	576 	605
f 571 	573 	605
f 569 	571 	610
f 580 	569 	610
f 580 	610 	613
f 617 	580 	613
f 621 	580 	617
f 649 	732 	708
f 461 	638 	452
f 600 	602 	452
f 585 	596 	583
f 452 	583 	596
f 542 	530 	596
f 96 	596 	530
f 531 	96 	530
f 532 	96 	531
f 534 	96 	532
f 452 	596 	96
f 650 	665 	647
f 652 	533 	447
f 1067 	31 	1081
f 96 	534 	545
f 96 	545 	548
f 551 	94 	548
f 96 	548 	94
f 536 	557 	535
f 546 	535 	555
f 555 	552 	546
f 542 	992 	530
f 1071 	633 	570
f 658 	459 	655
f 666 	904 	902
f 653 	668 	650
f 520 	661 	522
f 574 	578 	1044
f 663 	698 	662
f 998 	473 	996
f 470 	996 	473
f 698 	663 	664
f 698 	664 	654
f 1044 	578 	581
f 665 	666 	902
f 1000 	474 	473
f 1000 	473 	998
f 475 	476 	498
f 498 	494 	475
f 484 	475 	494
f 494 	493 	484
f 668 	669 	666
f 668 	666 	665
f 1002 	479 	474
f 1002 	474 	1000
f 1002 	627 	479
f 1048 	587 	591
f 484 	682 	670
f 674 	749 	673
f 676 	749 	674
f 591 	595 	1052
f 1034 	492 	489
f 677 	749 	676
f 902 	647 	665
f 668 	665 	650
f 691 	749 	680
f 1052 	595 	599
f 493 	682 	484
f 682 	679 	670
f 1056 	601 	603
f 522 	661 	688
f 1038 	640 	500
f 681 	691 	680
f 684 	691 	681
f 685 	691 	684
f 677 	680 	749
f 690 	1193 	683
f 710 	299 	304
f 697 	698 	695
f 701 	699 	692
f 552 	701 	546
f 694 	695 	698
f 721 	705 	696
f 521 	651 	439
f 628 	1068 	625
f 704 	8 	702
f 700 	702 	8
f 693 	8 	704
f 633 	1071 	628
f 1068 	628 	1071
f 692 	546 	701
f 707 	689 	697
f 706 	705 	721
f 706 	721 	722
f 594 	649 	708
f 708 	732 	711
f 712 	691 	710
f 656 	547 	455
f 713 	691 	712
f 797 	721 	703
f 690 	696 	705
f 652 	786 	711
f 714 	691 	713
f 691 	685 	710
f 269 	281 	268
f 715 	691 	714
f 590 	463 	659
f 648 	1078 	645
f 678 	281 	269
f 266 	268 	281
f 722 	721 	797
f 722 	797 	798
f 1078 	648 	620
f 966 	728 	726
f 726 	724 	966
f 717 	623 	774
f 696 	703 	721
f 716 	800 	703
f 718 	5 	715
f 719 	5 	718
f 723 	5 	719
f 725 	5 	723
f 5 	691 	715
f 5 	725 	727
f 729 	8 	727
f 700 	8 	729
f 5 	727 	8
f 652 	711 	732
f 758 	780 	739
f 686 	687 	709
f 710 	686 	709
f 687 	689 	709
f 686 	710 	685
f 707 	709 	689
f 698 	697 	689
f 689 	662 	698
f 805 	735 	742
f 694 	698 	693
f 8 	693 	698
f 654 	459 	698
f 655 	459 	654
f 459 	658 	660
f 8 	698 	459
f 656 	675 	744
f 661 	744 	688
f 743 	780 	745
f 746 	966 	720
f 459 	660 	667
f 459 	667 	672
f 673 	749 	672
f 459 	672 	749
f 805 	760 	761
f 1013 	576 	573
f 742 	760 	805
f 748 	770 	742
f 688 	744 	675
f 753 	675 	656
f 720 	966 	724
f 745 	966 	746
f 631 	753 	656
f 627 	759 	636
f 751 	758 	739
f 756 	780 	758
f 761 	760 	770
f 761 	770 	771
f 759 	627 	679
f 741 	780 	743
f 737 	739 	780
f 741 	737 	780
f 760 	742 	770
f 755 	809 	748
f 627 	670 	679
f 499 	803 	505
f 771 	770 	810
f 768 	809 	755
f 516 	510 	803
f 511 	803 	510
f 756 	427 	780
f 765 	780 	775
f 776 	814 	768
f 640 	777 	643
f 777 	640 	699
f 775 	780 	427
f 766 	780 	765
f 343 	960 	766
f 640 	692 	699
f 588 	614 	776
f 499 	516 	803
f 785 	783 	780
f 783 	781 	780
f 774 	651 	717
f 803 	511 	544
f 544 	541 	803
f 525 	544 	511
f 919 	740 	738
f 1058 	1006 	803
f 798 	797 	800
f 798 	800 	801
f 799 	795 	826
f 801 	800 	805
f 801 	805 	806
f 802 	780 	804
f 806 	805 	761
f 646 	786 	652
f 805 	800 	735
f 716 	735 	800
f 797 	703 	800
f 25 	1079 	31
f 789 	785 	780
f 780 	781 	807
f 804 	780 	807
f 1220 	147 	100
f 770 	809 	810
f 812 	259 	809
f 810 	809 	259
f 814 	815 	262
f 814 	262 	812
f 491 	826 	816
f 808 	816 	796
f 816 	813 	491
f 614 	815 	814
f 614 	814 	776
f 729 	354 	700
f 795 	796 	826
f 796 	816 	826
f 799 	823 	802
f 821 	855 	820
f 770 	748 	809
f 812 	809 	768
f 812 	768 	814
f 825 	855 	821
f 830 	837 	829
f 780 	802 	823
f 818 	855 	817
f 820 	855 	818
f 773 	944 	772
f 829 	837 	811
f 119 	94 	769
f 461 	769 	580
f 710 	296 	299
f 580 	769 	94
f 811 	837 	885
f 840 	885 	837
f 824 	780 	823
f 715 	714 	323
f 885 	880 	811
f 842 	890 	840
f 843 	841 	780
f 846 	780 	848
f 27 	817 	438
f 852 	893 	844
f 659 	903 	847
f 845 	847 	898
f 844 	845 	852
f 842 	844 	893
f 893 	890 	842
f 948 	851 	850
f 854 	866 	616
f 616 	855 	870
f 89 	3 	616
f 912 	911 	861
f 861 	860 	864
f 863 	864 	860
f 862 	859 	451
f 864 	863 	867
f 866 	867 	863
f 862 	451 	865
f 854 	869 	867
f 854 	867 	866
f 870 	871 	869
f 870 	869 	854
f 874 	875 	871
f 874 	871 	870
f 877 	878 	875
f 877 	875 	874
f 916 	878 	877
f 880 	881 	882
f 880 	882 	884
f 841 	839 	780
f 451 	780 	839
f 865 	451 	839
f 885 	886 	881
f 885 	881 	880
f 890 	891 	885
f 886 	885 	891
f 713 	309 	714
f 891 	890 	893
f 891 	893 	894
f 894 	893 	852
f 894 	852 	895
f 873 	889 	858
f 669 	938 	889
f 895 	852 	896
f 895 	896 	897
f 897 	896 	898
f 897 	898 	900
f 831 	832 	828
f 831 	828 	827
f 903 	905 	898
f 900 	898 	905
f 902 	904 	832
f 902 	832 	831
f 905 	903 	907
f 905 	907 	908
f 250 	626 	624
f 908 	907 	619
f 345 	910 	619
f 908 	619 	910
f 827 	609 	831
f 630 	647 	831
f 910 	622 	912
f 345 	622 	910
f 911 	912 	622
f 860 	861 	911
f 819 	986 	822
f 632 	246 	244
f 878 	916 	917
f 884 	882 	917
f 884 	917 	916
f 986 	819 	838
f 986 	838 	836
f 835 	671 	836
f 834 	671 	835
f 269 	671 	988
f 444 	17 	16
f 460 	457 	922
f 22 	17 	444
f 929 	468 	924
f 930 	923 	928
f 449 	27 	22
f 719 	326 	331
f 931 	468 	929
f 706 	451 	927
f 934 	477 	931
f 464 	924 	468
f 936 	480 	934
f 477 	471 	931
f 468 	931 	471
f 598 	234 	600
f 725 	344 	352
f 600 	234 	602
f 856 	858 	938
f 859 	856 	451
f 938 	451 	856
f 939 	486 	937
f 729 	352 	354
f 76 	774 	5
f 927 	451 	926
f 941 	490 	939
f 265 	700 	354
f 46 	942 	943
f 46 	943 	47
f 946 	928 	1081
f 944 	1153 	941
f 490 	486 	939
f 482 	937 	486
f 706 	722 	451
f 1202 	1152 	944
f 858 	889 	938
f 926 	451 	938
f 691 	5 	774
f 949 	1151 	919
f 968 	967 	1081
f 948 	850 	849
f 953 	496 	949
f 849 	824 	948
f 955 	502 	953
f 702 	700 	274
f 849 	848 	780
f 846 	843 	780
f 956 	963 	955
f 496 	953 	502
f 826 	823 	799
f 632 	244 	635
f 794 	792 	958
f 693 	704 	245
f 635 	244 	638
f 790 	766 	958
f 790 	958 	792
f 962 	549 	959
f 957 	959 	538
f 958 	766 	960
f 749 	691 	774
f 774 	76 	769
f 119 	769 	76
f 459 	749 	305
f 921 	457 	962
f 538 	959 	549
f 789 	766 	790
f 780 	766 	789
f 507 	955 	512
f 502 	955 	507
f 288 	420 	756
f 966 	745 	780
f 488 	1012 	46
f 963 	956 	524
f 267 	92 	90
f 1025 	504 	965
f 54 	965 	504
f 361 	966 	267
f 92 	267 	966
f 224 	404 	302
f 47 	943 	965
f 47 	965 	54
f 957 	524 	956
f 538 	528 	957
f 528 	524 	957
f 963 	512 	955
f 291 	306 	319
f 921 	922 	457
f 922 	924 	464
f 460 	922 	464
f 61 	499 	63
f 549 	962 	457
f 855 	448 	1
f 2 	1 	448
f 961 	1081 	964
f 448 	855 	526
f 482 	480 	937
f 936 	937 	480
f 477 	934 	480
f 272 	328 	226
f 361 	370 	966
f 202 	966 	370
f 954 	950 	231
f 233 	954 	231
f 723 	719 	337
f 229 	334 	224
f 499 	61 	75
f 947 	945 	950
f 250 	954 	236
f 950 	978 	947
f 778 	949 	919
f 284 	673 	672
f 356 	1008 	351
f 351 	960 	343
f 872 	868 	892
f 872 	892 	888
f 872 	888 	883
f 872 	883 	879
f 872 	879 	876
f 921 	747 	922
f 360 	1008 	356
f 750 	752 	922
f 967 	946 	1081
f 933 	932 	925
f 933 	925 	920
f 933 	920 	918
f 933 	918 	914
f 933 	914 	913
f 933 	913 	909
f 933 	909 	906
f 933 	906 	899
f 933 	899 	901
f 940 	935 	901
f 892 	935 	940
f 868 	935 	892
f 933 	901 	935
f 21 	1032 	72
f 1014 	373 	384
f 562 	140 	1047
f 972 	1047 	140
f 272 	1015 	393
f 384 	1015 	1014
f 140 	976 	972
f 328 	272 	393
f 25 	64 	1066
f 145 	975 	976
f 145 	976 	146
f 410 	302 	404
f 334 	404 	224
f 314 	306 	410
f 1050 	975 	145
f 322 	420 	288
f 485 	1032 	21
f 146 	976 	140
f 427 	756 	420
f 803 	1063 	13
f 979 	1079 	971
f 979 	981 	1079
f 434 	487 	813
f 31 	1067 	68
f 20 	69 	1060
f 232 	469 	445
f 80 	78 	52
f 263 	458 	237
f 957 	788 	959
f 469 	232 	465
f 241 	465 	232
f 791 	793 	959
f 472 	445 	469
f 478 	450 	472
f 436 	450 	481
f 1079 	980 	952
f 673 	284 	283
f 563 	1161 	1162
f 563 	1162 	565
f 1161 	563 	887
f 369 	214 	980
f 780 	824 	849
f 497 	951 	824
f 980 	1079 	981
f 503 	951 	497
f 945 	231 	950
f 1165 	575 	579
f 1162 	579 	565
f 977 	973 	978
f 974 	973 	977
f 969 	978 	973
f 969 	947 	978
f 508 	517 	503
f 513 	517 	508
f 517 	951 	503
f 876 	609 	597
f 928 	171 	930
f 778 	738 	747
f 738 	740 	747
f 750 	747 	740
f 750 	740 	773
f 750 	773 	772
f 750 	772 	767
f 750 	767 	764
f 750 	764 	763
f 750 	763 	762
f 750 	762 	757
f 750 	757 	754
f 750 	754 	752
f 523 	529 	543
f 529 	539 	543
f 879 	630 	609
f 879 	609 	876
f 791 	788 	793
f 788 	784 	793
f 784 	782 	793
f 782 	779 	793
f 779 	778 	793
f 747 	793 	778
f 630 	879 	647
f 263 	915 	550
f 946 	200 	928
f 458 	263 	550
f 940 	787 	653
f 832 	904 	565
f 887 	669 	889
f 24 	857 	111
f 252 	615 	575
f 970 	312 	311
f 683 	899 	690
f 909 	696 	690
f 641 	560 	570
f 570 	560 	603
f 570 	603 	601
f 570 	601 	599
f 570 	599 	595
f 570 	595 	591
f 570 	591 	587
f 570 	587 	581
f 578 	574 	581
f 570 	581 	574
f 696 	909 	703
f 280 	968 	235
f 645 	570 	648
f 642 	570 	645
f 620 	648 	570
f 641 	570 	642
f 618 	620 	570
f 633 	625 	570
f 628 	625 	633
f 618 	570 	625
f 730 	99 	98
f 982 	99 	730
f 952 	214 	964
f 107 	983 	108
f 733 	108 	983
f 961 	964 	235
f 257 	964 	214
f 106 	853 	35
f 105 	853 	106
f 920 	742 	735
f 275 	200 	967
f 275 	967 	280
f 968 	280 	967
f 111 	857 	112
f 369 	980 	375
f 742 	920 	748
f 961 	235 	968
f 1009 	400 	397
f 406 	400 	1009
f 1016 	413 	406
f 935 	588 	776
f 1019 	416 	413
f 1019 	413 	1016
f 1021 	422 	1019
f 416 	1019 	422
f 986 	836 	671
f 424 	422 	1021
f 787 	940 	901
f 52 	81 	80
f 833 	671 	834
f 833 	988 	671
f 269 	988 	678
f 1026 	429 	424
f 311 	971 	970
f 1026 	1040 	429
f 470 	590 	996
f 332 	971 	311
f 1203 	1201 	512
f 517 	512 	1201
f 963 	1203 	512
f 981 	979 	332
f 375 	981 	332
f 332 	979 	971
f 1203 	963 	524
f 543 	1205 	524
f 1203 	524 	1205
f 283 	674 	673
f 453 	1049 	462
f 915 	1206 	543
f 676 	674 	283
f 375 	980 	981
f 657 	462 	1335
f 1049 	1335 	462
f 476 	475 	1176
f 476 	1175 	37
f 637 	575 	615
f 63 	505 	397
f 1006 	397 	505
f 495 	492 	1034
f 397 	1006 	1009
f 484 	1178 	475
f 1176 	475 	1178
f 1038 	500 	495
f 1038 	495 	1036
f 360 	359 	1008
f 1209 	1008 	359
f 828 	579 	637
f 685 	835 	686
f 1011 	406 	1009
f 942 	46 	1012
f 1213 	366 	1014
f 365 	1014 	366
f 686 	835 	687
f 1213 	1014 	1015
f 488 	1027 	1012
f 406 	1011 	1016
f 682 	493 	1091
f 1018 	1091 	493
f 1070 	518 	514
f 669 	887 	666
f 494 	1020 	1018
f 494 	1018 	493
f 519 	518 	1070
f 693 	245 	694
f 247 	694 	245
f 498 	1022 	1020
f 498 	1020 	494
f 1023 	424 	1021
f 254 	695 	247
f 91 	1219 	1218
f 501 	1024 	1022
f 501 	1022 	498
f 62 	67 	218
f 722 	798 	451
f 697 	695 	260
f 504 	1025 	1024
f 504 	1024 	501
f 424 	1023 	1026
f 1219 	91 	1221
f 707 	697 	292
f 533 	652 	1077
f 506 	1027 	488
f 1077 	1069 	533
f 769 	451 	798
f 509 	1028 	506
f 1027 	506 	1028
f 1028 	509 	515
f 1028 	515 	1029
f 1006 	1058 	1009
f 1029 	515 	657
f 547 	656 	1086
f 133 	1225 	116
f 522 	1030 	520
f 996 	1102 	1110
f 1016 	1011 	1058
f 1030 	522 	1031
f 709 	292 	296
f 1227 	133 	1229
f 1002 	1000 	1032
f 998 	1032 	1000
f 810 	769 	771
f 710 	709 	296
f 1026 	1023 	1040
f 1031 	522 	1093
f 688 	1093 	522
f 1002 	1032 	1338
f 1337 	661 	1030
f 801 	769 	798
f 1016 	1058 	1019
f 1011 	1009 	1058
f 505 	803 	1006
f 309 	713 	304
f 536 	535 	1278
f 453 	429 	1040
f 316 	714 	309
f 1217 	1232 	86
f 541 	103 	536
f 489 	547 	1033
f 316 	323 	714
f 489 	1033 	1034
f 1040 	1023 	1021
f 715 	323 	326
f 546 	1283 	535
f 1278 	535 	1283
f 771 	769 	761
f 318 	1074 	321
f 1075 	419 	1074
f 321 	1074 	419
f 1036 	495 	1034
f 331 	337 	719
f 555 	1041 	1037
f 555 	1037 	552
f 461 	451 	769
f 769 	801 	806
f 769 	806 	761
f 1040 	1049 	453
f 514 	533 	1069
f 557 	1043 	1041
f 557 	1041 	555
f 344 	725 	337
f 514 	1069 	1070
f 559 	1045 	1043
f 559 	1043 	557
f 1021 	1058 	1040
f 815 	615 	252
f 1046 	391 	1044
f 372 	1042 	383
f 1044 	383 	1042
f 562 	1047 	1045
f 562 	1045 	559
f 1072 	521 	519
f 1048 	327 	1046
f 1051 	327 	1048
f 383 	1044 	391
f 568 	1050 	145
f 694 	247 	695
f 1049 	1040 	1058
f 1050 	568 	572
f 1050 	572 	1053
f 1086 	1092 	1033
f 769 	810 	259
f 254 	260 	695
f 1034 	1033 	1092
f 1021 	1019 	1058
f 577 	1055 	572
f 1053 	572 	1055
f 260 	292 	697
f 409 	403 	1056
f 333 	1052 	403
f 262 	815 	252
f 1055 	577 	582
f 1055 	582 	1057
f 1038 	1036 	1063
f 1034 	1063 	1036
f 1059 	313 	1056
f 1054 	1056 	403
f 582 	644 	1057
f 274 	277 	704
f 1339 	1038 	1063
f 1035 	318 	1059
f 409 	1056 	313
f 594 	1061 	592
f 277 	245 	704
f 565 	579 	832
f 1061 	594 	1062
f 649 	592 	1061
f 20 	1058 	13
f 1068 	341 	1065
f 1104 	1062 	708
f 594 	708 	1062
f 803 	13 	1058
f 1070 	1069 	1066
f 1060 	1058 	20
f 1071 	349 	1068
f 1124 	1065 	341
f 887 	563 	666
f 904 	666 	563
f 563 	565 	904
f 828 	832 	579
f 579 	575 	637
f 1067 	1073 	1072
f 1067 	1072 	1070
f 608 	607 	1330
f 948 	824 	951
f 1039 	1080 	1071
f 349 	1071 	353
f 341 	1068 	349
f 539 	550 	915
f 543 	539 	915
f 623 	1331 	607
f 1330 	607 	1331
f 1076 	426 	1075
f 483 	487 	434
f 491 	813 	487
f 434 	436 	483
f 481 	483 	436
f 478 	481 	450
f 450 	445 	472
f 1078 	1130 	1076
f 1069 	1077 	1066
f 1008 	960 	351
f 419 	1075 	426
f 353 	1071 	359
f 365 	373 	1014
f 384 	393 	1015
f 1080 	1039 	366
f 1334 	732 	649
f 519 	1070 	1072
f 288 	291 	322
f 319 	322 	291
f 314 	319 	306
f 306 	302 	410
f 1073 	521 	1072
f 1029 	657 	1335
f 736 	734 	1082
f 717 	651 	1340
f 520 	1030 	661
f 1042 	366 	1039
f 372 	366 	1042
f 1080 	359 	1071
f 731 	1082 	734
f 744 	661 	1337
f 990 	993 	989
f 990 	989 	987
f 990 	987 	985
f 990 	985 	984
f 992 	991 	984
f 990 	984 	991
f 1083 	966 	1084
f 265 	274 	700
f 1178 	484 	670
f 391 	1046 	327
f 327 	1051 	329
f 274 	704 	702
f 1086 	1033 	547
f 1087 	202 	1088
f 1093 	688 	1089
f 336 	1088 	202
f 1052 	333 	1051
f 1054 	403 	1052
f 333 	329 	1051
f 1089 	675 	753
f 1082 	731 	1083
f 966 	1083 	728
f 731 	728 	1083
f 1013 	1010 	1007
f 1013 	1007 	1005
f 1013 	1005 	1004
f 1013 	1004 	1003
f 1013 	1003 	1001
f 1013 	1001 	999
f 1013 	999 	997
f 1013 	997 	995
f 1013 	995 	994
f 1013 	994 	993
f 990 	1017 	993
f 1013 	993 	1017
f 313 	1059 	318
f 1035 	1074 	318
f 1128 	759 	1090
f 679 	1090 	759
f 292 	709 	707
f 1087 	1085 	202
f 1085 	1084 	202
f 202 	1084 	966
f 1090 	679 	1091
f 682 	1091 	679
f 560 	641 	1035
f 370 	93 	202
f 1039 	1071 	570
f 1094 	1060 	69
f 663 	819 	822
f 675 	1089 	688
f 574 	1042 	1039
f 574 	1039 	570
f 98 	108 	730
f 93 	117 	202
f 616 	202 	89
f 72 	1032 	998
f 1110 	81 	998
f 1044 	1042 	574
f 692 	1283 	546
f 1114 	720 	1095
f 65 	1063 	1034
f 69 	65 	1034
f 1092 	69 	1034
f 1095 	720 	724
f 1095 	724 	1096
f 554 	38 	102
f 581 	1046 	1044
f 777 	699 	1136
f 1097 	1136 	699
f 68 	1067 	1070
f 1066 	64 	1070
f 68 	1070 	64
f 733 	730 	108
f 1096 	724 	726
f 1096 	726 	1099
f 1097 	699 	1098
f 701 	1098 	699
f 1048 	1046 	581
f 857 	853 	112
f 1099 	726 	728
f 1099 	728 	1100
f 69 	1092 	1094
f 701 	552 	1098
f 1037 	1098 	552
f 1100 	728 	731
f 1100 	731 	1101
f 591 	1051 	1048
f 659 	1102 	590
f 723 	337 	725
f 1101 	731 	734
f 1101 	734 	1103
f 590 	1102 	996
f 105 	112 	853
f 1052 	1051 	591
f 1103 	734 	736
f 1103 	736 	1105
f 102 	38 	43
f 998 	996 	1110
f 711 	1106 	708
f 1104 	708 	1106
f 599 	1054 	1052
f 1081 	31 	1079
f 737 	1107 	1108
f 737 	1108 	739
f 53 	1102 	659
f 1056 	1054 	599
f 53 	1110 	1102
f 741 	1109 	1107
f 741 	1107 	737
f 603 	1059 	1056
f 743 	1111 	1109
f 743 	1109 	741
f 1111 	743 	745
f 1111 	745 	1112
f 1113 	80 	81
f 1059 	560 	1035
f 603 	560 	1059
f 72 	998 	81
f 1113 	81 	1110
f 1112 	745 	746
f 1112 	746 	1114
f 720 	1114 	746
f 1255 	618 	1064
f 685 	684 	834
f 1108 	1117 	739
f 751 	739 	1117
f 1064 	618 	1065
f 625 	1065 	618
f 1068 	1065 	625
f 756 	1119 	289
f 756 	289 	288
f 758 	1121 	1119
f 758 	1119 	756
f 838 	689 	836
f 753 	1123 	1089
f 1121 	758 	751
f 1121 	751 	1117
f 1035 	641 	1074
f 1124 	766 	765
f 1124 	765 	1126
f 304 	712 	710
f 1123 	753 	631
f 1123 	631 	1127
f 642 	1075 	1074
f 642 	1074 	641
f 343 	766 	1124
f 343 	1124 	341
f 713 	712 	304
f 1127 	636 	1128
f 759 	1128 	636
f 1075 	642 	1076
f 645 	1076 	642
f 427 	426 	775
f 1130 	775 	426
f 1126 	765 	775
f 1126 	775 	1130
f 1078 	1076 	645
f 326 	718 	715
f 640 	1038 	1339
f 781 	1256 	1277
f 620 	1255 	1078
f 719 	718 	326
f 1256 	781 	783
f 1256 	783 	1257
f 1135 	436 	1134
f 434 	1134 	436
f 1136 	1144 	643
f 777 	1136 	643
f 785 	1258 	783
f 1257 	783 	1258
f 1291 	1134 	434
f 687 	835 	836
f 1258 	785 	789
f 1258 	789 	1259
f 711 	786 	1140
f 711 	1140 	1106
f 725 	352 	727
f 687 	836 	689
f 790 	1260 	789
f 1259 	789 	1260
f 1142 	1139 	445
f 1140 	786 	646
f 1140 	646 	1144
f 727 	352 	729
f 1260 	790 	792
f 436 	1135 	1142
f 1144 	430 	643
f 689 	838 	819
f 740 	919 	1202
f 662 	819 	663
f 795 	1265 	1266
f 795 	1266 	796
f 919 	738 	778
f 1265 	795 	1268
f 799 	1268 	795
f 921 	962 	747
f 744 	1342 	656
f 802 	1270 	1268
f 802 	1268 	799
f 833 	834 	684
f 750 	922 	747
f 1270 	802 	804
f 26 	1348 	811
f 685 	834 	835
f 804 	807 	1277
f 924 	922 	752
f 1277 	807 	781
f 27 	449 	817
f 924 	752 	929
f 754 	929 	752
f 817 	1343 	818
f 1344 	818 	1343
f 929 	754 	931
f 757 	931 	754
f 819 	662 	689
f 1345 	820 	818
f 1345 	818 	1344
f 796 	1266 	808
f 820 	1345 	821
f 1346 	821 	1345
f 757 	762 	931
f 934 	931 	762
f 1282 	808 	1266
f 825 	821 	1346
f 952 	964 	1079
f 1081 	1079 	964
f 968 	1081 	961
f 808 	1282 	816
f 763 	936 	762
f 934 	762 	936
f 205 	56 	59
f 829 	811 	1348
f 763 	764 	936
f 937 	936 	764
f 813 	1291 	434
f 62 	205 	59
f 663 	822 	986
f 829 	1348 	830
f 1291 	813 	816
f 937 	764 	939
f 767 	939 	764
f 1151 	824 	823
f 1151 	823 	1152
f 222 	67 	73
f 767 	772 	939
f 941 	939 	772
f 837 	830 	1349
f 222 	73 	223
f 40 	837 	30
f 944 	941 	772
f 826 	491 	490
f 1153 	826 	490
f 837 	40 	840
f 42 	842 	840
f 42 	840 	40
f 1152 	823 	826
f 1152 	826 	1153
f 44 	844 	42
f 842 	42 	844
f 497 	824 	1151
f 497 	1151 	496
f 844 	44 	51
f 844 	51 	845
f 228 	82 	85
f 53 	847 	51
f 845 	51 	847
f 949 	778 	953
f 779 	953 	778
f 88 	228 	85
f 663 	986 	664
f 659 	847 	53
f 1301 	839 	841
f 654 	664 	671
f 782 	955 	953
f 782 	953 	779
f 1301 	841 	843
f 677 	281 	678
f 955 	782 	956
f 784 	956 	782
f 846 	1305 	843
f 784 	788 	956
f 957 	956 	788
f 864 	867 	1155
f 1154 	861 	1155
f 864 	1155 	861
f 1305 	846 	848
f 791 	959 	788
f 1156 	1155 	867
f 867 	869 	1156
f 317 	1242 	320
f 849 	1308 	848
f 671 	655 	654
f 962 	959 	793
f 1244 	1245 	320
f 1157 	869 	1158
f 1308 	849 	850
f 793 	747 	962
f 875 	878 	1159
f 1159 	1158 	875
f 253 	118 	124
f 986 	671 	664
f 851 	1311 	850
f 137 	256 	124
f 1160 	1159 	878
f 680 	677 	678
f 887 	1319 	1161
f 681 	680 	988
f 1164 	882 	1163
f 833 	684 	988
f 190 	48 	191
f 579 	1167 	1165
f 891 	1168 	886
f 881 	886 	1166
f 1316 	1315 	862
f 1162 	1167 	579
f 1166 	886 	1168
f 865 	1317 	862
f 55 	48 	201
f 935 	868 	588
f 1169 	1168 	891
f 891 	894 	1169
f 894 	895 	1169
f 526 	855 	527
f 616 	527 	855
f 872 	597 	868
f 588 	868 	597
f 527 	616 	3
f 873 	858 	1318
f 678 	988 	680
f 204 	56 	205
f 876 	597 	872
f 900 	905 	1172
f 1171 	897 	1172
f 681 	988 	684
f 1175 	476 	1176
f 1173 	1172 	905
f 92 	966 	780
f 95 	92 	780
f 95 	780 	451
f 466 	37 	1175
f 905 	908 	1173
f 1174 	1173 	908
f 1177 	1174 	908
f 883 	647 	879
f 889 	1320 	1319
f 889 	1319 	887
f 647 	883 	650
f 888 	650 	883
f 77 	223 	73
f 910 	912 	1177
f 873 	1318 	889
f 650 	888 	653
f 892 	653 	888
f 225 	223 	79
f 1160 	917 	1181
f 79 	82 	225
f 653 	892 	940
f 668 	653 	1197
f 1166 	1163 	881
f 882 	881 	1163
f 878 	917 	1160
f 1164 	1181 	882
f 882 	1181 	917
f 88 	230 	228
f 104 	238 	88
f 906 	690 	899
f 690 	906 	909
f 913 	703 	909
f 240 	113 	114
f 703 	913 	716
f 914 	716 	913
f 240 	114 	118
f 705 	706 	1193
f 927 	1193 	706
f 705 	1193 	690
f 918 	735 	716
f 918 	716 	914
f 253 	124 	256
f 1186 	1194 	943
f 965 	943 	1194
f 1012 	1188 	942
f 942 	1187 	943
f 787 	901 	1183
f 735 	918 	920
f 1191 	167 	1190
f 1183 	1195 	787
f 925 	748 	920
f 1192 	167 	1191
f 1197 	938 	668
f 49 	191 	48
f 191 	49 	56
f 1193 	927 	926
f 1193 	926 	1195
f 748 	925 	755
f 932 	755 	925
f 381 	428 	1118
f 109 	1194 	1186
f 933 	768 	755
f 933 	755 	932
f 190 	201 	48
f 669 	668 	938
f 164 	1189 	1198
f 204 	191 	56
f 1195 	926 	938
f 1195 	938 	1197
f 768 	933 	776
f 935 	776 	933
f 787 	1197 	653
f 62 	218 	205
f 1183 	683 	1195
f 1197 	787 	1195
f 1193 	1195 	683
f 221 	218 	67
f 1275 	536 	1278
f 222 	221 	67
f 951 	258 	948
f 536 	1275 	541
f 1216 	972 	976
f 258 	951 	517
f 77 	79 	223
f 1202 	919 	1152
f 975 	1220 	976
f 1216 	976 	1196
f 227 	225 	82
f 1151 	1152 	919
f 82 	228 	227
f 1205 	543 	1206
f 1206 	915 	263
f 496 	1151 	949
f 230 	88 	238
f 1152 	1153 	944
f 490 	941 	1153
f 143 	201 	261
f 1209 	359 	1211
f 1080 	1211 	359
f 1090 	1091 	1182
f 1211 	1080 	366
f 1211 	366 	1213
f 239 	238 	113
f 104 	113 	238
f 1214 	135 	1212
f 1015 	1215 	1213
f 1091 	1018 	1182
f 1184 	1182 	1018
f 1018 	1020 	1184
f 740 	1202 	944
f 239 	113 	240
f 272 	1215 	1015
f 1185 	1020 	1190
f 135 	1214 	1216
f 251 	240 	118
f 4 	1147 	1148
f 1186 	943 	1187
f 1149 	7 	1148
f 4 	1148 	7
f 251 	118 	253
f 86 	1218 	1217
f 10 	7 	1150
f 1149 	1150 	7
f 256 	137 	143
f 143 	261 	256
f 843 	1303 	1301
f 1187 	942 	1188
f 377 	1115 	1116
f 55 	201 	143
f 148 	1220 	1222
f 530 	984 	531
f 1189 	1188 	1012
f 1028 	1198 	1027
f 1012 	1027 	1189
f 848 	1306 	1305
f 28 	154 	1224
f 148 	1222 	1223
f 381 	1118 	1115
f 1225 	1224 	115
f 1120 	386 	1116
f 1227 	1225 	133
f 1191 	1190 	1024
f 850 	1309 	1308
f 1192 	1191 	1025
f 1024 	1025 	1191
f 1228 	1230 	152
f 1165 	1229 	252
f 1194 	1192 	965
f 1025 	965 	1192
f 152 	1230 	1231
f 28 	263 	154
f 1206 	263 	28
f 1189 	1027 	1198
f 1311 	851 	948
f 115 	1224 	154
f 1215 	272 	1232
f 161 	1232 	272
f 1314 	858 	1313
f 856 	1313 	858
f 407 	1132 	1133
f 161 	86 	1232
f 1313 	856 	1315
f 859 	1315 	856
f 1137 	412 	1133
f 438 	9 	160
f 305 	160 	9
f 855 	1 	438
f 9 	438 	1
f 1082 	1233 	1105
f 1082 	1105 	736
f 1083 	1234 	1233
f 1083 	1233 	1082
f 859 	862 	1315
f 1234 	1083 	1084
f 1234 	1084 	1235
f 1031 	1093 	1200
f 1235 	1084 	1085
f 1235 	1085 	1236
f 1316 	862 	1317
f 1236 	1085 	1087
f 1236 	1087 	1237
f 418 	1141 	1143
f 1237 	1087 	1088
f 1237 	1088 	1238
f 865 	839 	1317
f 1238 	1088 	336
f 336 	184 	1239
f 1238 	336 	1239
f 1037 	1207 	1204
f 558 	997 	999
f 203 	279 	183
f 1145 	428 	1150
f 1037 	1041 	1207
f 644 	1332 	1057
f 1320 	889 	1318
f 1212 	1210 	1045
f 1243 	1333 	1061
f 649 	1061 	1334
f 1214 	1212 	1047
f 1045 	1047 	1212
f 1216 	1214 	972
f 1047 	972 	1214
f 1147 	435 	1146
f 377 	1116 	386
f 1196 	976 	1220
f 1335 	1336 	1029
f 1251 	1336 	1030
f 948 	255 	1311
f 616 	612 	1253
f 1220 	975 	1222
f 975 	1050 	1222
f 1115 	377 	376
f 531 	985 	987
f 255 	948 	258
f 387 	386 	1122
f 1120 	1122 	386
f 517 	1201 	258
f 1122 	1125 	387
f 390 	387 	1125
f 1254 	1253 	612
f 1223 	1222 	1050
f 1050 	1053 	1223
f 1226 	1223 	1053
f 1115 	376 	381
f 958 	264 	794
f 396 	390 	1129
f 1125 	1129 	390
f 264 	958 	273
f 960 	273 	958
f 1053 	1055 	1226
f 336 	202 	1253
f 273 	960 	1008
f 1008 	1209 	273
f 1131 	398 	1129
f 396 	1129 	398
f 485 	466 	1175
f 485 	1175 	1176
f 1176 	1178 	1032
f 485 	1176 	1032
f 1228 	1061 	1230
f 398 	1131 	1132
f 774 	769 	443
f 530 	992 	984
f 1065 	1124 	1064
f 407 	1133 	412
f 159 	1180 	1272
f 23 	224 	14
f 1132 	401 	398
f 407 	401 	1132
f 415 	412 	1138
f 1137 	1138 	412
f 189 	1287 	156
f 226 	18 	272
f 1255 	1064 	1126
f 1184 	157 	156
f 1184 	156 	1182
f 415 	1138 	418
f 1141 	418 	1138
f 224 	23 	229
f 1228 	1226 	1243
f 158 	157 	1184
f 158 	1184 	1185
f 1124 	1126 	1064
f 1078 	1255 	1126
f 1126 	1130 	1078
f 426 	1076 	1130
f 1185 	1190 	158
f 1255 	620 	618
f 1143 	423 	418
f 36 	232 	29
f 109 	1187 	162
f 10 	1150 	428
f 237 	33 	263
f 1188 	163 	162
f 1188 	162 	1187
f 1145 	1118 	428
f 241 	232 	36
f 163 	1188 	164
f 1189 	164 	1188
f 1057 	1243 	1226
f 1055 	1057 	1226
f 1243 	1061 	1228
f 1231 	1230 	1062
f 1062 	1230 	1061
f 1104 	1231 	1062
f 432 	423 	1146
f 1143 	1146 	423
f 432 	1146 	435
f 1043 	1045 	1210
f 1208 	1207 	1041
f 1208 	1041 	1210
f 1043 	1210 	1041
f 158 	1190 	165
f 435 	1147 	4
f 167 	165 	1190
f 1199 	1198 	1251
f 1010 	571 	1007
f 74 	263 	33
f 1192 	168 	167
f 1260 	792 	1261
f 576 	1013 	1017
f 1194 	169 	168
f 1194 	168 	1192
f 794 	1262 	792
f 1261 	792 	1262
f 1031 	1200 	1030
f 264 	1262 	794
f 1194 	109 	169
f 532 	987 	534
f 1029 	1251 	1198
f 1028 	1029 	1198
f 1251 	1030 	1199
f 1200 	1199 	1030
f 1180 	1200 	1093
f 164 	1198 	172
f 542 	540 	992
f 1199 	173 	1198
f 172 	1198 	173
f 57 	66 	259
f 1022 	1024 	1190
f 1185 	1184 	1020
f 1022 	1190 	1020
f 1199 	1200 	173
f 1200 	174 	173
f 252 	60 	262
f 1270 	804 	1273
f 1180 	159 	1200
f 174 	1200 	159
f 548 	994 	551
f 769 	259 	66
f 66 	443 	769
f 551 	995 	997
f 1273 	804 	1277
f 1093 	1089 	1180
f 1272 	1180 	1089
f 60 	252 	50
f 558 	999 	1001
f 1089 	1123 	1272
f 1276 	1272 	1123
f 566 	564 	1004
f 566 	1004 	567
f 1005 	1007 	567
f 1010 	1013 	571
f 272 	18 	83
f 1287 	1285 	1090
f 1128 	1090 	1285
f 985 	531 	984
f 1207 	126 	125
f 1207 	125 	1204
f 987 	532 	531
f 616 	1253 	202
f 1182 	1287 	1090
f 989 	534 	987
f 1208 	127 	1207
f 126 	1207 	127
f 534 	989 	545
f 816 	1293 	1291
f 346 	619 	659
f 1210 	127 	1208
f 1293 	816 	1282
f 991 	540 	990
f 537 	990 	540
f 991 	992 	540
f 348 	612 	622
f 616 	622 	612
f 1212 	134 	1210
f 545 	989 	993
f 994 	548 	993
f 545 	993 	548
f 135 	134 	1212
f 944 	773 	740
f 995 	551 	994
f 997 	553 	551
f 1216 	136 	135
f 364 	631 	656
f 364 	656 	455
f 553 	997 	558
f 1317 	839 	1299
f 1001 	561 	558
f 561 	1001 	564
f 1003 	564 	1001
f 1299 	839 	1301
f 367 	627 	636
f 1003 	1004 	564
f 1097 	1204 	1297
f 1136 	1097 	1297
f 270 	1241 	1240
f 1005 	567 	1004
f 569 	567 	1007
f 367 	357 	627
f 1007 	571 	569
f 1097 	1098 	1204
f 1037 	1204 	1098
f 843 	1305 	1303
f 1013 	573 	571
f 1223 	149 	148
f 1017 	990 	576
f 990 	537 	576
f 1104 	1106 	1231
f 848 	1308 	1306
f 149 	1223 	150
f 1226 	150 	1223
f 1307 	1231 	1106
f 150 	1226 	151
f 1228 	151 	1226
f 850 	1311 	1309
f 402 	640 	643
f 1106 	1140 	1307
f 1310 	1307 	1140
f 151 	1228 	152
f 1246 	330 	1245
f 389 	640 	402
f 1231 	153 	152
f 1248 	338 	1247
f 1170 	1169 	895
f 1170 	895 	1171
f 897 	1171 	895
f 900 	1172 	897
f 646 	652 	431
f 774 	443 	651
f 1295 	1136 	1297
f 1144 	1136 	1312
f 439 	651 	443
f 608 	1329 	166
f 271 	270 	371
f 1312 	1310 	1140
f 1140 	1144 	1312
f 1295 	1312 	1136
f 278 	1241 	270
f 1127 	1128 	1281
f 1281 	1276 	1123
f 1123 	1127 	1281
f 1285 	1281 	1128
f 447 	431 	652
f 1240 	371 	270
f 388 	298 	371
f 861 	1154 	1179
f 912 	861 	1179
f 294 	380 	382
f 1244 	320 	1242
f 908 	910 	1177
f 1179 	1177 	912
f 644 	312 	970
f 1318 	858 	1314
f 324 	320 	1245
f 871 	875 	1158
f 1157 	1156 	869
f 871 	1158 	869
f 192 	1179 	1154
f 346 	659 	463
f 347 	1250 	325
f 1155 	193 	192
f 1155 	192 	1154
f 408 	414 	310
f 1334 	1061 	1333
f 315 	414 	317
f 1156 	194 	193
f 1156 	193 	1155
f 1241 	278 	1252
f 325 	1252 	278
f 178 	1321 	1322
f 178 	1322 	179
f 271 	371 	298
f 195 	194 	1156
f 195 	1156 	1157
f 324 	1245 	330
f 394 	379 	301
f 1324 	1325 	1323
f 606 	1323 	1325
f 611 	606 	1325
f 1158 	196 	195
f 1158 	195 	1157
f 379 	380 	287
f 293 	287 	380
f 293 	380 	294
f 335 	330 	1247
f 1246 	1247 	330
f 1159 	197 	196
f 1159 	196 	1158
f 1323 	586 	1322
f 1327 	1324 	177
f 199 	1327 	177
f 1324 	1323 	1321
f 1321 	177 	1324
f 1322 	1321 	1323
f 1326 	1322 	586
f 584 	1326 	586
f 1278 	803 	1275
f 1275 	803 	541
f 294 	382 	308
f 1322 	121 	120
f 1322 	120 	179
f 335 	1247 	338
f 178 	123 	122
f 178 	122 	1321
f 683 	1183 	899
f 901 	899 	1183
f 1160 	198 	197
f 1160 	197 	1159
f 394 	301 	388
f 298 	388 	301
f 1326 	141 	121
f 1326 	121 	1322
f 338 	1248 	342
f 1249 	342 	1248
f 287 	301 	379
f 1321 	122 	139
f 1321 	139 	177
f 1181 	198 	1160
f 382 	399 	308
f 347 	342 	1250
f 1249 	1250 	342
f 606 	131 	130
f 606 	130 	1323
f 308 	399 	310
f 408 	310 	399
f 1163 	207 	206
f 1163 	206 	1164
f 1324 	129 	128
f 1324 	128 	1325
f 437 	1300 	1302
f 315 	310 	414
f 1252 	325 	1250
f 1323 	130 	142
f 1323 	142 	586
f 803 	1278 	1063
f 1166 	208 	207
f 1166 	207 	1163
f 1242 	317 	414
f 1327 	144 	129
f 1327 	129 	1324
f 1241 	414 	1240
f 371 	1240 	414
f 1325 	612 	611
f 1168 	209 	208
f 1168 	208 	1166
f 1278 	1283 	1063
f 612 	1325 	1254
f 969 	593 	947
f 209 	1168 	1169
f 209 	1169 	210
f 65 	13 	1063
f 593 	969 	973
f 414 	1241 	1252
f 414 	1252 	1250
f 414 	1250 	1249
f 414 	1249 	1248
f 414 	1248 	1247
f 414 	1247 	1246
f 414 	1246 	1245
f 414 	1245 	1244
f 414 	1244 	1242
f 1170 	211 	1169
f 210 	1169 	211
f 1325 	1327 	1328
f 1170 	1171 	211
f 1171 	212 	211
f 1096 	38 	1095
f 1254 	1325 	1328
f 212 	1171 	1172
f 212 	1172 	213
f 1099 	38 	1096
f 1100 	38 	1099
f 213 	1172 	1173
f 213 	1173 	215
f 144 	1327 	1325
f 144 	1325 	128
f 945 	585 	231
f 215 	1173 	1174
f 215 	1174 	216
f 945 	947 	585
f 1210 	132 	127
f 1328 	1327 	184
f 1105 	1233 	1103
f 1177 	217 	1174
f 216 	1174 	217
f 134 	132 	1210
f 1179 	219 	217
f 1179 	217 	1177
f 977 	610 	974
f 199 	184 	1327
f 610 	977 	978
f 1179 	192 	219
f 617 	978 	950
f 621 	617 	954
f 1181 	220 	198
f 250 	624 	954
f 117 	89 	202
f 1114 	554 	1112
f 231 	585 	583
f 220 	1181 	1164
f 220 	1164 	206
f 947 	589 	585
f 1328 	1253 	1254
f 441 	16 	15
f 441 	15 	440
f 336 	1253 	184
f 1328 	184 	1253
f 444 	16 	441
f 604 	973 	605
f 155 	1326 	66
f 584 	443 	1326
f 66 	1326 	443
f 610 	605 	974
f 148 	147 	1220
f 141 	1326 	155
f 446 	22 	444
f 184 	199 	183
f 1111 	1112 	554
f 1095 	38 	1114
f 554 	1114 	38
f 22 	446 	449
f 950 	954 	617
f 183 	199 	203
f 199 	177 	203
f 598 	639 	236
f 1121 	554 	1119
f 1117 	1108 	1121
f 947 	593 	589
f 440 	15 	32
f 32 	456 	440
f 1107 	554 	1108
f 32 	39 	456
f 604 	593 	973
f 554 	1107 	1109
f 1111 	554 	1109
f 974 	605 	973
f 467 	39 	466
f 37 	466 	39
f 467 	456 	39
f 1121 	1108 	554
f 978 	613 	610
f 109 	1186 	1187
f 613 	978 	617
f 295 	41 	279
f 621 	954 	624
f 499 	505 	63
f 626 	250 	249
f 41 	295 	45
f 556 	101 	295
f 45 	295 	101
f 290 	289 	554
f 1079 	25 	1066
f 107 	99 	1218
f 1218 	983 	107
f 289 	1119 	554
f 70 	511 	71
f 510 	71 	511
f 249 	248 	626
f 629 	626 	248
f 71 	510 	75
f 516 	75 	510
f 106 	1225 	111
f 1225 	24 	111
f 516 	499 	75
f 982 	1218 	99
f 35 	1225 	106
f 629 	248 	246
f 860 	911 	616
f 511 	70 	525
f 84 	525 	70
f 863 	860 	616
f 866 	863 	616
f 1330 	1081 	1329
f 923 	1329 	928
f 1081 	928 	1329
f 854 	616 	870
f 870 	855 	874
f 855 	916 	877
f 877 	874 	855
f 544 	525 	110
f 638 	244 	243
f 825 	811 	880
f 890 	885 	840
f 103 	541 	110
f 544 	110 	541
f 242 	639 	243
f 638 	243 	639
f 852 	845 	896
f 896 	845 	898
f 898 	847 	903
f 1196 	100 	1216
f 907 	903 	659
f 619 	907 	659
f 1330 	1067 	1081
f 1330 	1331 	1067
f 1196 	1220 	100
f 295 	297 	556
f 300 	556 	297
f 136 	1216 	100
f 616 	911 	622
f 303 	556 	300
f 923 	166 	1329
f 307 	556 	303
f 242 	236 	639
f 930 	170 	166
f 930 	166 	923
f 290 	556 	307
f 855 	825 	880
f 855 	880 	884
f 916 	855 	884
f 170 	930 	171
f 1331 	1340 	1067
f 598 	236 	234
f 554 	556 	290
f 1101 	1103 	1233
f 602 	234 	233
f 1079 	1332 	971
f 970 	971 	1332
f 1333 	1332 	1079
f 231 	583 	233
f 602 	233 	583
f 171 	928 	200
f 1234 	1235 	38
f 1236 	38 	1235
f 378 	374 	1284
f 952 	980 	214
f 1238 	1239 	41
f 279 	41 	1239
f 1333 	1079 	1066
f 1334 	1333 	1066
f 1329 	608 	1330
f 1233 	38 	1101
f 1101 	38 	1100
f 1234 	38 	1233
f 964 	257 	235
f 1237 	41 	1236
f 1238 	41 	1237
f 41 	38 	1236
f 970 	1332 	644
f 1333 	1057 	1332
f 1243 	1057 	1333
f 1257 	730 	1256
f 946 	967 	200
f 1251 	1029 	1336
f 1337 	1030 	1336
f 411 	405 	1288
f 1335 	1049 	1058
f 1336 	1335 	1058
f 1336 	1092 	1337
f 264 	1261 	1262
f 264 	1260 	1261
f 425 	421 	1292
f 1058 	1060 	1336
f 1060 	1094 	1336
f 1002 	1338 	627
f 670 	627 	1338
f 1270 	733 	1268
f 1273 	1277 	733
f 670 	1338 	1178
f 730 	733 	1277
f 437 	1302 	1304
f 667 	660 	286
f 1272 	1276 	186
f 339 	1263 	1264
f 672 	667 	285
f 1281 	187 	1276
f 186 	1276 	187
f 672 	285 	284
f 187 	1281 	188
f 1285 	188 	1281
f 1287 	189 	188
f 1287 	188 	1285
f 339 	1264 	1269
f 730 	1277 	1256
f 1293 	1282 	1266
f 362 	1274 	1279
f 655 	671 	269
f 1266 	733 	1293
f 655 	269 	268
f 655 	268 	658
f 658 	268 	660
f 266 	660 	268
f 1291 	1293 	733
f 1268 	733 	1265
f 1266 	1265 	733
f 1270 	1273 	733
f 1286 	405 	1284
f 266 	286 	660
f 1307 	1310 	181
f 411 	1288 	1289
f 273 	730 	264
f 1260 	264 	730
f 286 	285 	667
f 1259 	1260 	730
f 385 	425 	1294
f 1259 	730 	1258
f 1257 	1258 	730
f 676 	283 	282
f 717 	1331 	623
f 282 	281 	676
f 677 	676 	281
f 1135 	1134 	733
f 1291 	733 	1134
f 392 	1296 	1298
f 732 	1341 	652
f 1135 	983 	1142
f 1135 	733 	983
f 1178 	1338 	1032
f 1209 	730 	273
f 1263 	339 	340
f 1211 	730 	1209
f 355 	339 	1269
f 185 	159 	1272
f 395 	1298 	350
f 1267 	350 	1298
f 340 	350 	1263
f 1267 	1263 	350
f 186 	185 	1272
f 1211 	982 	730
f 1213 	982 	1211
f 1271 	358 	1269
f 355 	1269 	358
f 1182 	156 	1287
f 1303 	853 	1301
f 358 	1271 	362
f 1274 	362 	1271
f 692 	640 	1339
f 692 	1339 	1283
f 1305 	853 	1303
f 1306 	1308 	853
f 175 	182 	1295
f 368 	362 	1279
f 176 	175 	1297
f 1280 	374 	1279
f 368 	1279 	374
f 1204 	125 	1297
f 1297 	125 	176
f 255 	1309 	1311
f 1280 	1284 	374
f 1284 	405 	378
f 1286 	1288 	405
f 181 	1310 	1312
f 417 	411 	1289
f 1290 	421 	1289
f 521 	1073 	651
f 1315 	1316 	857
f 1292 	1294 	425
f 385 	1294 	433
f 1316 	1317 	857
f 857 	1317 	1299
f 1301 	853 	1299
f 392 	1298 	395
f 1283 	1339 	1063
f 1300 	433 	1294
f 1318 	1314 	1320
f 433 	1300 	437
f 1304 	442 	437
f 392 	442 	1296
f 1304 	1296 	442
f 1295 	1297 	175
f 1313 	857 	1314
f 1315 	857 	1313
f 1320 	1314 	857
f 1118 	1125 	1115
f 1116 	1115 	1120
f 1307 	180 	153
f 153 	1231 	1307
f 1320 	857 	1319
f 181 	180 	1307
f 255 	1308 	1309
f 1312 	182 	181
f 1146 	1143 	1145
f 1143 	1141 	1145
f 1118 	1145 	1141
f 1118 	1141 	1138
f 1118 	1138 	1137
f 1118 	1137 	1133
f 1118 	1133 	1132
f 1118 	1132 	1131
f 1118 	1131 	1129
f 1118 	1129 	1125
f 1122 	1115 	1125
f 1120 	1115 	1122
f 258 	853 	255
f 1146 	1145 	1147
f 1148 	1147 	1145
f 1148 	1145 	1150
f 1148 	1150 	1149
f 1312 	1295 	182
f 1267 	1274 	1263
f 1264 	1263 	1269
f 1308 	255 	853
f 1305 	1306 	853
f 857 	1299 	853
f 1073 	1067 	1340
f 857 	1161 	1319
f 1296 	1294 	1298
f 1294 	1292 	1298
f 1292 	1290 	1298
f 1267 	1298 	1290
f 1267 	1290 	1289
f 1267 	1289 	1288
f 1267 	1288 	1286
f 1267 	1286 	1284
f 1267 	1284 	1280
f 1267 	1280 	1279
f 1267 	1279 	1274
f 1271 	1263 	1274
f 1269 	1263 	1271
f 1294 	1296 	1300
f 1302 	1300 	1296
f 1302 	1296 	1304
f 1167 	24 	1165
f 1162 	24 	1167
f 1334 	1066 	1341
f 1161 	857 	1162
f 24 	1162 	857
f 1077 	1341 	1066
f 1201 	853 	258
f 1203 	853 	1201
f 1073 	1340 	651
f 1331 	717 	1340
f 1341 	732 	1334
f 28 	35 	1206
f 1077 	652 	1341
f 744 	1337 	1342
f 1203 	35 	853
f 1205 	35 	1203
f 1205 	1206 	35
f 1086 	656 	1342
f 982 	1217 	1218
f 1086 	1342 	1092
f 1337 	1092 	1342
f 1218 	1219 	983
f 983 	1219 	1221
f 1139 	983 	1221
f 1092 	1336 	1094
f 1142 	983 	1139
f 811 	825 	26
f 1343 	817 	449
f 982 	1213 	1215
f 1217 	982 	1232
f 1215 	1232 	982
f 35 	28 	1224
f 35 	1224 	1225
f 1347 	825 	1346
f 1347 	26 	825
f 1229 	24 	1227
f 1225 	1227 	24
f 1348 	1349 	830
f 1165 	24 	1229
f 1348 	26 	30
f 40 	30 	78
f 1345 	1344 	78
f 485 	78 	1343
f 1346 	1345 	78
f 1344 	1343 	78
f 449 	485 	1343
f 485 	21 	78
f 78 	21 	52
f 30 	837 	1349
f 1348 	30 	1349
# 2734 faces

 #end of obj_0

